
rv32ui-p-slt:     file format elf32-littleriscv


Disassembly of section .text.init:

80000000 <_start>:
80000000:	0480006f          	j	80000048 <reset_vector>

80000004 <trap_vector>:
80000004:	34202f73          	csrr	t5,mcause
80000008:	00800f93          	li	t6,8
8000000c:	03ff0863          	beq	t5,t6,8000003c <write_tohost>
80000010:	00900f93          	li	t6,9
80000014:	03ff0463          	beq	t5,t6,8000003c <write_tohost>
80000018:	00b00f93          	li	t6,11
8000001c:	03ff0063          	beq	t5,t6,8000003c <write_tohost>
80000020:	00000f13          	li	t5,0
80000024:	000f0463          	beqz	t5,8000002c <trap_vector+0x28>
80000028:	000f0067          	jr	t5
8000002c:	34202f73          	csrr	t5,mcause
80000030:	000f5463          	bgez	t5,80000038 <handle_exception>
80000034:	0040006f          	j	80000038 <handle_exception>

80000038 <handle_exception>:
80000038:	5391e193          	ori	gp,gp,1337

8000003c <write_tohost>:
8000003c:	00001f17          	auipc	t5,0x1
80000040:	fc3f2223          	sw	gp,-60(t5) # 80001000 <tohost>
80000044:	ff9ff06f          	j	8000003c <write_tohost>

80000048 <reset_vector>:
80000048:	f1402573          	csrr	a0,mhartid
8000004c:	00051063          	bnez	a0,8000004c <reset_vector+0x4>
80000050:	00000297          	auipc	t0,0x0
80000054:	01028293          	addi	t0,t0,16 # 80000060 <reset_vector+0x18>
80000058:	30529073          	csrw	mtvec,t0
8000005c:	18005073          	csrwi	satp,0
80000060:	00000297          	auipc	t0,0x0
80000064:	01c28293          	addi	t0,t0,28 # 8000007c <reset_vector+0x34>
80000068:	30529073          	csrw	mtvec,t0
8000006c:	fff00293          	li	t0,-1
80000070:	3b029073          	csrw	pmpaddr0,t0
80000074:	01f00293          	li	t0,31
80000078:	3a029073          	csrw	pmpcfg0,t0
8000007c:	00000297          	auipc	t0,0x0
80000080:	01828293          	addi	t0,t0,24 # 80000094 <reset_vector+0x4c>
80000084:	30529073          	csrw	mtvec,t0
80000088:	30205073          	csrwi	medeleg,0
8000008c:	30305073          	csrwi	mideleg,0
80000090:	30405073          	csrwi	mie,0
80000094:	00000193          	li	gp,0
80000098:	00000297          	auipc	t0,0x0
8000009c:	f6c28293          	addi	t0,t0,-148 # 80000004 <trap_vector>
800000a0:	30529073          	csrw	mtvec,t0
800000a4:	00100513          	li	a0,1
800000a8:	01f51513          	slli	a0,a0,0x1f
800000ac:	00054863          	bltz	a0,800000bc <reset_vector+0x74>
800000b0:	0ff0000f          	fence
800000b4:	00100193          	li	gp,1
800000b8:	00000073          	ecall
800000bc:	00000293          	li	t0,0
800000c0:	00028e63          	beqz	t0,800000dc <reset_vector+0x94>
800000c4:	10529073          	csrw	stvec,t0
800000c8:	0000b2b7          	lui	t0,0xb
800000cc:	10928293          	addi	t0,t0,265 # b109 <_start-0x7fff4ef7>
800000d0:	30229073          	csrw	medeleg,t0
800000d4:	30202373          	csrr	t1,medeleg
800000d8:	f66290e3          	bne	t0,t1,80000038 <handle_exception>
800000dc:	30005073          	csrwi	mstatus,0
800000e0:	00000297          	auipc	t0,0x0
800000e4:	01428293          	addi	t0,t0,20 # 800000f4 <test_2>
800000e8:	34129073          	csrw	mepc,t0
800000ec:	f1402573          	csrr	a0,mhartid
800000f0:	30200073          	mret

800000f4 <test_2>:
800000f4:	00000093          	li	ra,0
800000f8:	00000113          	li	sp,0
800000fc:	0020a733          	slt	a4,ra,sp
80000100:	00000393          	li	t2,0
80000104:	00200193          	li	gp,2
80000108:	4a771a63          	bne	a4,t2,800005bc <fail>

8000010c <test_3>:
8000010c:	00100093          	li	ra,1
80000110:	00100113          	li	sp,1
80000114:	0020a733          	slt	a4,ra,sp
80000118:	00000393          	li	t2,0
8000011c:	00300193          	li	gp,3
80000120:	48771e63          	bne	a4,t2,800005bc <fail>

80000124 <test_4>:
80000124:	00300093          	li	ra,3
80000128:	00700113          	li	sp,7
8000012c:	0020a733          	slt	a4,ra,sp
80000130:	00100393          	li	t2,1
80000134:	00400193          	li	gp,4
80000138:	48771263          	bne	a4,t2,800005bc <fail>

8000013c <test_5>:
8000013c:	00700093          	li	ra,7
80000140:	00300113          	li	sp,3
80000144:	0020a733          	slt	a4,ra,sp
80000148:	00000393          	li	t2,0
8000014c:	00500193          	li	gp,5
80000150:	46771663          	bne	a4,t2,800005bc <fail>

80000154 <test_6>:
80000154:	00000093          	li	ra,0
80000158:	ffff8137          	lui	sp,0xffff8
8000015c:	0020a733          	slt	a4,ra,sp
80000160:	00000393          	li	t2,0
80000164:	00600193          	li	gp,6
80000168:	44771a63          	bne	a4,t2,800005bc <fail>

8000016c <test_7>:
8000016c:	800000b7          	lui	ra,0x80000
80000170:	00000113          	li	sp,0
80000174:	0020a733          	slt	a4,ra,sp
80000178:	00100393          	li	t2,1
8000017c:	00700193          	li	gp,7
80000180:	42771e63          	bne	a4,t2,800005bc <fail>

80000184 <test_8>:
80000184:	800000b7          	lui	ra,0x80000
80000188:	ffff8137          	lui	sp,0xffff8
8000018c:	0020a733          	slt	a4,ra,sp
80000190:	00100393          	li	t2,1
80000194:	00800193          	li	gp,8
80000198:	42771263          	bne	a4,t2,800005bc <fail>

8000019c <test_9>:
8000019c:	00000093          	li	ra,0
800001a0:	00008137          	lui	sp,0x8
800001a4:	fff10113          	addi	sp,sp,-1 # 7fff <_start-0x7fff8001>
800001a8:	0020a733          	slt	a4,ra,sp
800001ac:	00100393          	li	t2,1
800001b0:	00900193          	li	gp,9
800001b4:	40771463          	bne	a4,t2,800005bc <fail>

800001b8 <test_10>:
800001b8:	800000b7          	lui	ra,0x80000
800001bc:	fff08093          	addi	ra,ra,-1 # 7fffffff <_end+0xffffdfff>
800001c0:	00000113          	li	sp,0
800001c4:	0020a733          	slt	a4,ra,sp
800001c8:	00000393          	li	t2,0
800001cc:	00a00193          	li	gp,10
800001d0:	3e771663          	bne	a4,t2,800005bc <fail>

800001d4 <test_11>:
800001d4:	800000b7          	lui	ra,0x80000
800001d8:	fff08093          	addi	ra,ra,-1 # 7fffffff <_end+0xffffdfff>
800001dc:	00008137          	lui	sp,0x8
800001e0:	fff10113          	addi	sp,sp,-1 # 7fff <_start-0x7fff8001>
800001e4:	0020a733          	slt	a4,ra,sp
800001e8:	00000393          	li	t2,0
800001ec:	00b00193          	li	gp,11
800001f0:	3c771663          	bne	a4,t2,800005bc <fail>

800001f4 <test_12>:
800001f4:	800000b7          	lui	ra,0x80000
800001f8:	00008137          	lui	sp,0x8
800001fc:	fff10113          	addi	sp,sp,-1 # 7fff <_start-0x7fff8001>
80000200:	0020a733          	slt	a4,ra,sp
80000204:	00100393          	li	t2,1
80000208:	00c00193          	li	gp,12
8000020c:	3a771863          	bne	a4,t2,800005bc <fail>

80000210 <test_13>:
80000210:	800000b7          	lui	ra,0x80000
80000214:	fff08093          	addi	ra,ra,-1 # 7fffffff <_end+0xffffdfff>
80000218:	ffff8137          	lui	sp,0xffff8
8000021c:	0020a733          	slt	a4,ra,sp
80000220:	00000393          	li	t2,0
80000224:	00d00193          	li	gp,13
80000228:	38771a63          	bne	a4,t2,800005bc <fail>

8000022c <test_14>:
8000022c:	00000093          	li	ra,0
80000230:	fff00113          	li	sp,-1
80000234:	0020a733          	slt	a4,ra,sp
80000238:	00000393          	li	t2,0
8000023c:	00e00193          	li	gp,14
80000240:	36771e63          	bne	a4,t2,800005bc <fail>

80000244 <test_15>:
80000244:	fff00093          	li	ra,-1
80000248:	00100113          	li	sp,1
8000024c:	0020a733          	slt	a4,ra,sp
80000250:	00100393          	li	t2,1
80000254:	00f00193          	li	gp,15
80000258:	36771263          	bne	a4,t2,800005bc <fail>

8000025c <test_16>:
8000025c:	fff00093          	li	ra,-1
80000260:	fff00113          	li	sp,-1
80000264:	0020a733          	slt	a4,ra,sp
80000268:	00000393          	li	t2,0
8000026c:	01000193          	li	gp,16
80000270:	34771663          	bne	a4,t2,800005bc <fail>

80000274 <test_17>:
80000274:	00e00093          	li	ra,14
80000278:	00d00113          	li	sp,13
8000027c:	0020a0b3          	slt	ra,ra,sp
80000280:	00000393          	li	t2,0
80000284:	01100193          	li	gp,17
80000288:	32709a63          	bne	ra,t2,800005bc <fail>

8000028c <test_18>:
8000028c:	00b00093          	li	ra,11
80000290:	00d00113          	li	sp,13
80000294:	0020a133          	slt	sp,ra,sp
80000298:	00100393          	li	t2,1
8000029c:	01200193          	li	gp,18
800002a0:	30711e63          	bne	sp,t2,800005bc <fail>

800002a4 <test_19>:
800002a4:	00d00093          	li	ra,13
800002a8:	0010a0b3          	slt	ra,ra,ra
800002ac:	00000393          	li	t2,0
800002b0:	01300193          	li	gp,19
800002b4:	30709463          	bne	ra,t2,800005bc <fail>

800002b8 <test_20>:
800002b8:	00000213          	li	tp,0
800002bc:	00b00093          	li	ra,11
800002c0:	00d00113          	li	sp,13
800002c4:	0020a733          	slt	a4,ra,sp
800002c8:	00070313          	mv	t1,a4
800002cc:	00120213          	addi	tp,tp,1 # 1 <_start-0x7fffffff>
800002d0:	00200293          	li	t0,2
800002d4:	fe5214e3          	bne	tp,t0,800002bc <test_20+0x4>
800002d8:	00100393          	li	t2,1
800002dc:	01400193          	li	gp,20
800002e0:	2c731e63          	bne	t1,t2,800005bc <fail>

800002e4 <test_21>:
800002e4:	00000213          	li	tp,0
800002e8:	00e00093          	li	ra,14
800002ec:	00d00113          	li	sp,13
800002f0:	0020a733          	slt	a4,ra,sp
800002f4:	00000013          	nop
800002f8:	00070313          	mv	t1,a4
800002fc:	00120213          	addi	tp,tp,1 # 1 <_start-0x7fffffff>
80000300:	00200293          	li	t0,2
80000304:	fe5212e3          	bne	tp,t0,800002e8 <test_21+0x4>
80000308:	00000393          	li	t2,0
8000030c:	01500193          	li	gp,21
80000310:	2a731663          	bne	t1,t2,800005bc <fail>

80000314 <test_22>:
80000314:	00000213          	li	tp,0
80000318:	00c00093          	li	ra,12
8000031c:	00d00113          	li	sp,13
80000320:	0020a733          	slt	a4,ra,sp
80000324:	00000013          	nop
80000328:	00000013          	nop
8000032c:	00070313          	mv	t1,a4
80000330:	00120213          	addi	tp,tp,1 # 1 <_start-0x7fffffff>
80000334:	00200293          	li	t0,2
80000338:	fe5210e3          	bne	tp,t0,80000318 <test_22+0x4>
8000033c:	00100393          	li	t2,1
80000340:	01600193          	li	gp,22
80000344:	26731c63          	bne	t1,t2,800005bc <fail>

80000348 <test_23>:
80000348:	00000213          	li	tp,0
8000034c:	00e00093          	li	ra,14
80000350:	00d00113          	li	sp,13
80000354:	0020a733          	slt	a4,ra,sp
80000358:	00120213          	addi	tp,tp,1 # 1 <_start-0x7fffffff>
8000035c:	00200293          	li	t0,2
80000360:	fe5216e3          	bne	tp,t0,8000034c <test_23+0x4>
80000364:	00000393          	li	t2,0
80000368:	01700193          	li	gp,23
8000036c:	24771863          	bne	a4,t2,800005bc <fail>

80000370 <test_24>:
80000370:	00000213          	li	tp,0
80000374:	00b00093          	li	ra,11
80000378:	00d00113          	li	sp,13
8000037c:	00000013          	nop
80000380:	0020a733          	slt	a4,ra,sp
80000384:	00120213          	addi	tp,tp,1 # 1 <_start-0x7fffffff>
80000388:	00200293          	li	t0,2
8000038c:	fe5214e3          	bne	tp,t0,80000374 <test_24+0x4>
80000390:	00100393          	li	t2,1
80000394:	01800193          	li	gp,24
80000398:	22771263          	bne	a4,t2,800005bc <fail>

8000039c <test_25>:
8000039c:	00000213          	li	tp,0
800003a0:	00f00093          	li	ra,15
800003a4:	00d00113          	li	sp,13
800003a8:	00000013          	nop
800003ac:	00000013          	nop
800003b0:	0020a733          	slt	a4,ra,sp
800003b4:	00120213          	addi	tp,tp,1 # 1 <_start-0x7fffffff>
800003b8:	00200293          	li	t0,2
800003bc:	fe5212e3          	bne	tp,t0,800003a0 <test_25+0x4>
800003c0:	00000393          	li	t2,0
800003c4:	01900193          	li	gp,25
800003c8:	1e771a63          	bne	a4,t2,800005bc <fail>

800003cc <test_26>:
800003cc:	00000213          	li	tp,0
800003d0:	00a00093          	li	ra,10
800003d4:	00000013          	nop
800003d8:	00d00113          	li	sp,13
800003dc:	0020a733          	slt	a4,ra,sp
800003e0:	00120213          	addi	tp,tp,1 # 1 <_start-0x7fffffff>
800003e4:	00200293          	li	t0,2
800003e8:	fe5214e3          	bne	tp,t0,800003d0 <test_26+0x4>
800003ec:	00100393          	li	t2,1
800003f0:	01a00193          	li	gp,26
800003f4:	1c771463          	bne	a4,t2,800005bc <fail>

800003f8 <test_27>:
800003f8:	00000213          	li	tp,0
800003fc:	01000093          	li	ra,16
80000400:	00000013          	nop
80000404:	00d00113          	li	sp,13
80000408:	00000013          	nop
8000040c:	0020a733          	slt	a4,ra,sp
80000410:	00120213          	addi	tp,tp,1 # 1 <_start-0x7fffffff>
80000414:	00200293          	li	t0,2
80000418:	fe5212e3          	bne	tp,t0,800003fc <test_27+0x4>
8000041c:	00000393          	li	t2,0
80000420:	01b00193          	li	gp,27
80000424:	18771c63          	bne	a4,t2,800005bc <fail>

80000428 <test_28>:
80000428:	00000213          	li	tp,0
8000042c:	00900093          	li	ra,9
80000430:	00000013          	nop
80000434:	00000013          	nop
80000438:	00d00113          	li	sp,13
8000043c:	0020a733          	slt	a4,ra,sp
80000440:	00120213          	addi	tp,tp,1 # 1 <_start-0x7fffffff>
80000444:	00200293          	li	t0,2
80000448:	fe5212e3          	bne	tp,t0,8000042c <test_28+0x4>
8000044c:	00100393          	li	t2,1
80000450:	01c00193          	li	gp,28
80000454:	16771463          	bne	a4,t2,800005bc <fail>

80000458 <test_29>:
80000458:	00000213          	li	tp,0
8000045c:	00d00113          	li	sp,13
80000460:	01100093          	li	ra,17
80000464:	0020a733          	slt	a4,ra,sp
80000468:	00120213          	addi	tp,tp,1 # 1 <_start-0x7fffffff>
8000046c:	00200293          	li	t0,2
80000470:	fe5216e3          	bne	tp,t0,8000045c <test_29+0x4>
80000474:	00000393          	li	t2,0
80000478:	01d00193          	li	gp,29
8000047c:	14771063          	bne	a4,t2,800005bc <fail>

80000480 <test_30>:
80000480:	00000213          	li	tp,0
80000484:	00d00113          	li	sp,13
80000488:	00800093          	li	ra,8
8000048c:	00000013          	nop
80000490:	0020a733          	slt	a4,ra,sp
80000494:	00120213          	addi	tp,tp,1 # 1 <_start-0x7fffffff>
80000498:	00200293          	li	t0,2
8000049c:	fe5214e3          	bne	tp,t0,80000484 <test_30+0x4>
800004a0:	00100393          	li	t2,1
800004a4:	01e00193          	li	gp,30
800004a8:	10771a63          	bne	a4,t2,800005bc <fail>

800004ac <test_31>:
800004ac:	00000213          	li	tp,0
800004b0:	00d00113          	li	sp,13
800004b4:	01200093          	li	ra,18
800004b8:	00000013          	nop
800004bc:	00000013          	nop
800004c0:	0020a733          	slt	a4,ra,sp
800004c4:	00120213          	addi	tp,tp,1 # 1 <_start-0x7fffffff>
800004c8:	00200293          	li	t0,2
800004cc:	fe5212e3          	bne	tp,t0,800004b0 <test_31+0x4>
800004d0:	00000393          	li	t2,0
800004d4:	01f00193          	li	gp,31
800004d8:	0e771263          	bne	a4,t2,800005bc <fail>

800004dc <test_32>:
800004dc:	00000213          	li	tp,0
800004e0:	00d00113          	li	sp,13
800004e4:	00000013          	nop
800004e8:	00700093          	li	ra,7
800004ec:	0020a733          	slt	a4,ra,sp
800004f0:	00120213          	addi	tp,tp,1 # 1 <_start-0x7fffffff>
800004f4:	00200293          	li	t0,2
800004f8:	fe5214e3          	bne	tp,t0,800004e0 <test_32+0x4>
800004fc:	00100393          	li	t2,1
80000500:	02000193          	li	gp,32
80000504:	0a771c63          	bne	a4,t2,800005bc <fail>

80000508 <test_33>:
80000508:	00000213          	li	tp,0
8000050c:	00d00113          	li	sp,13
80000510:	00000013          	nop
80000514:	01300093          	li	ra,19
80000518:	00000013          	nop
8000051c:	0020a733          	slt	a4,ra,sp
80000520:	00120213          	addi	tp,tp,1 # 1 <_start-0x7fffffff>
80000524:	00200293          	li	t0,2
80000528:	fe5212e3          	bne	tp,t0,8000050c <test_33+0x4>
8000052c:	00000393          	li	t2,0
80000530:	02100193          	li	gp,33
80000534:	08771463          	bne	a4,t2,800005bc <fail>

80000538 <test_34>:
80000538:	00000213          	li	tp,0
8000053c:	00d00113          	li	sp,13
80000540:	00000013          	nop
80000544:	00000013          	nop
80000548:	00600093          	li	ra,6
8000054c:	0020a733          	slt	a4,ra,sp
80000550:	00120213          	addi	tp,tp,1 # 1 <_start-0x7fffffff>
80000554:	00200293          	li	t0,2
80000558:	fe5212e3          	bne	tp,t0,8000053c <test_34+0x4>
8000055c:	00100393          	li	t2,1
80000560:	02200193          	li	gp,34
80000564:	04771c63          	bne	a4,t2,800005bc <fail>

80000568 <test_35>:
80000568:	fff00093          	li	ra,-1
8000056c:	00102133          	sgtz	sp,ra
80000570:	00000393          	li	t2,0
80000574:	02300193          	li	gp,35
80000578:	04711263          	bne	sp,t2,800005bc <fail>

8000057c <test_36>:
8000057c:	fff00093          	li	ra,-1
80000580:	0000a133          	sltz	sp,ra
80000584:	00100393          	li	t2,1
80000588:	02400193          	li	gp,36
8000058c:	02711863          	bne	sp,t2,800005bc <fail>

80000590 <test_37>:
80000590:	000020b3          	sltz	ra,zero
80000594:	00000393          	li	t2,0
80000598:	02500193          	li	gp,37
8000059c:	02709063          	bne	ra,t2,800005bc <fail>

800005a0 <test_38>:
800005a0:	01000093          	li	ra,16
800005a4:	01e00113          	li	sp,30
800005a8:	0020a033          	slt	zero,ra,sp
800005ac:	00000393          	li	t2,0
800005b0:	02600193          	li	gp,38
800005b4:	00701463          	bne	zero,t2,800005bc <fail>
800005b8:	00301c63          	bne	zero,gp,800005d0 <pass>

800005bc <fail>:
800005bc:	0ff0000f          	fence
800005c0:	00018063          	beqz	gp,800005c0 <fail+0x4>
800005c4:	00119193          	slli	gp,gp,0x1
800005c8:	0011e193          	ori	gp,gp,1
800005cc:	00000073          	ecall

800005d0 <pass>:
800005d0:	0ff0000f          	fence
800005d4:	00100193          	li	gp,1
800005d8:	00000073          	ecall
800005dc:	c0001073          	unimp
800005e0:	0000                	unimp
800005e2:	0000                	unimp
800005e4:	0000                	unimp
800005e6:	0000                	unimp
800005e8:	0000                	unimp
800005ea:	0000                	unimp
800005ec:	0000                	unimp
800005ee:	0000                	unimp
800005f0:	0000                	unimp
800005f2:	0000                	unimp
800005f4:	0000                	unimp
800005f6:	0000                	unimp
800005f8:	0000                	unimp
800005fa:	0000                	unimp
