
rv32ui-p-ori:     file format elf32-littleriscv


Disassembly of section .text.init:

80000000 <_start>:
80000000:	0480006f          	j	80000048 <reset_vector>

80000004 <trap_vector>:
80000004:	34202f73          	csrr	t5,mcause
80000008:	00800f93          	li	t6,8
8000000c:	03ff0863          	beq	t5,t6,8000003c <write_tohost>
80000010:	00900f93          	li	t6,9
80000014:	03ff0463          	beq	t5,t6,8000003c <write_tohost>
80000018:	00b00f93          	li	t6,11
8000001c:	03ff0063          	beq	t5,t6,8000003c <write_tohost>
80000020:	00000f13          	li	t5,0
80000024:	000f0463          	beqz	t5,8000002c <trap_vector+0x28>
80000028:	000f0067          	jr	t5
8000002c:	34202f73          	csrr	t5,mcause
80000030:	000f5463          	bgez	t5,80000038 <handle_exception>
80000034:	0040006f          	j	80000038 <handle_exception>

80000038 <handle_exception>:
80000038:	5391e193          	ori	gp,gp,1337

8000003c <write_tohost>:
8000003c:	00001f17          	auipc	t5,0x1
80000040:	fc3f2223          	sw	gp,-60(t5) # 80001000 <tohost>
80000044:	ff9ff06f          	j	8000003c <write_tohost>

80000048 <reset_vector>:
80000048:	f1402573          	csrr	a0,mhartid
8000004c:	00051063          	bnez	a0,8000004c <reset_vector+0x4>
80000050:	00000297          	auipc	t0,0x0
80000054:	01028293          	addi	t0,t0,16 # 80000060 <reset_vector+0x18>
80000058:	30529073          	csrw	mtvec,t0
8000005c:	18005073          	csrwi	satp,0
80000060:	00000297          	auipc	t0,0x0
80000064:	01c28293          	addi	t0,t0,28 # 8000007c <reset_vector+0x34>
80000068:	30529073          	csrw	mtvec,t0
8000006c:	fff00293          	li	t0,-1
80000070:	3b029073          	csrw	pmpaddr0,t0
80000074:	01f00293          	li	t0,31
80000078:	3a029073          	csrw	pmpcfg0,t0
8000007c:	00000297          	auipc	t0,0x0
80000080:	01828293          	addi	t0,t0,24 # 80000094 <reset_vector+0x4c>
80000084:	30529073          	csrw	mtvec,t0
80000088:	30205073          	csrwi	medeleg,0
8000008c:	30305073          	csrwi	mideleg,0
80000090:	30405073          	csrwi	mie,0
80000094:	00000193          	li	gp,0
80000098:	00000297          	auipc	t0,0x0
8000009c:	f6c28293          	addi	t0,t0,-148 # 80000004 <trap_vector>
800000a0:	30529073          	csrw	mtvec,t0
800000a4:	00100513          	li	a0,1
800000a8:	01f51513          	slli	a0,a0,0x1f
800000ac:	00054863          	bltz	a0,800000bc <reset_vector+0x74>
800000b0:	0ff0000f          	fence
800000b4:	00100193          	li	gp,1
800000b8:	00000073          	ecall
800000bc:	00000293          	li	t0,0
800000c0:	00028e63          	beqz	t0,800000dc <reset_vector+0x94>
800000c4:	10529073          	csrw	stvec,t0
800000c8:	0000b2b7          	lui	t0,0xb
800000cc:	10928293          	addi	t0,t0,265 # b109 <_start-0x7fff4ef7>
800000d0:	30229073          	csrw	medeleg,t0
800000d4:	30202373          	csrr	t1,medeleg
800000d8:	f66290e3          	bne	t0,t1,80000038 <handle_exception>
800000dc:	30005073          	csrwi	mstatus,0
800000e0:	00000297          	auipc	t0,0x0
800000e4:	01428293          	addi	t0,t0,20 # 800000f4 <test_2>
800000e8:	34129073          	csrw	mepc,t0
800000ec:	f1402573          	csrr	a0,mhartid
800000f0:	30200073          	mret

800000f4 <test_2>:
800000f4:	ff0100b7          	lui	ra,0xff010
800000f8:	f0008093          	addi	ra,ra,-256 # ff00ff00 <_end+0x7f00df00>
800000fc:	f0f0e713          	ori	a4,ra,-241
80000100:	f0f00393          	li	t2,-241
80000104:	00200193          	li	gp,2
80000108:	1c771463          	bne	a4,t2,800002d0 <fail>

8000010c <test_3>:
8000010c:	0ff010b7          	lui	ra,0xff01
80000110:	ff008093          	addi	ra,ra,-16 # ff00ff0 <_start-0x700ff010>
80000114:	0f00e713          	ori	a4,ra,240
80000118:	0ff013b7          	lui	t2,0xff01
8000011c:	ff038393          	addi	t2,t2,-16 # ff00ff0 <_start-0x700ff010>
80000120:	00300193          	li	gp,3
80000124:	1a771663          	bne	a4,t2,800002d0 <fail>

80000128 <test_4>:
80000128:	00ff00b7          	lui	ra,0xff0
8000012c:	0ff08093          	addi	ra,ra,255 # ff00ff <_start-0x7f00ff01>
80000130:	70f0e713          	ori	a4,ra,1807
80000134:	00ff03b7          	lui	t2,0xff0
80000138:	7ff38393          	addi	t2,t2,2047 # ff07ff <_start-0x7f00f801>
8000013c:	00400193          	li	gp,4
80000140:	18771863          	bne	a4,t2,800002d0 <fail>

80000144 <test_5>:
80000144:	f00ff0b7          	lui	ra,0xf00ff
80000148:	00f08093          	addi	ra,ra,15 # f00ff00f <_end+0x700fd00f>
8000014c:	0f00e713          	ori	a4,ra,240
80000150:	f00ff3b7          	lui	t2,0xf00ff
80000154:	0ff38393          	addi	t2,t2,255 # f00ff0ff <_end+0x700fd0ff>
80000158:	00500193          	li	gp,5
8000015c:	16771a63          	bne	a4,t2,800002d0 <fail>

80000160 <test_6>:
80000160:	ff0100b7          	lui	ra,0xff010
80000164:	f0008093          	addi	ra,ra,-256 # ff00ff00 <_end+0x7f00df00>
80000168:	0f00e093          	ori	ra,ra,240
8000016c:	ff0103b7          	lui	t2,0xff010
80000170:	ff038393          	addi	t2,t2,-16 # ff00fff0 <_end+0x7f00dff0>
80000174:	00600193          	li	gp,6
80000178:	14709c63          	bne	ra,t2,800002d0 <fail>

8000017c <test_7>:
8000017c:	00000213          	li	tp,0
80000180:	0ff010b7          	lui	ra,0xff01
80000184:	ff008093          	addi	ra,ra,-16 # ff00ff0 <_start-0x700ff010>
80000188:	0f00e713          	ori	a4,ra,240
8000018c:	00070313          	mv	t1,a4
80000190:	00120213          	addi	tp,tp,1 # 1 <_start-0x7fffffff>
80000194:	00200293          	li	t0,2
80000198:	fe5214e3          	bne	tp,t0,80000180 <test_7+0x4>
8000019c:	0ff013b7          	lui	t2,0xff01
800001a0:	ff038393          	addi	t2,t2,-16 # ff00ff0 <_start-0x700ff010>
800001a4:	00700193          	li	gp,7
800001a8:	12731463          	bne	t1,t2,800002d0 <fail>

800001ac <test_8>:
800001ac:	00000213          	li	tp,0
800001b0:	00ff00b7          	lui	ra,0xff0
800001b4:	0ff08093          	addi	ra,ra,255 # ff00ff <_start-0x7f00ff01>
800001b8:	70f0e713          	ori	a4,ra,1807
800001bc:	00000013          	nop
800001c0:	00070313          	mv	t1,a4
800001c4:	00120213          	addi	tp,tp,1 # 1 <_start-0x7fffffff>
800001c8:	00200293          	li	t0,2
800001cc:	fe5212e3          	bne	tp,t0,800001b0 <test_8+0x4>
800001d0:	00ff03b7          	lui	t2,0xff0
800001d4:	7ff38393          	addi	t2,t2,2047 # ff07ff <_start-0x7f00f801>
800001d8:	00800193          	li	gp,8
800001dc:	0e731a63          	bne	t1,t2,800002d0 <fail>

800001e0 <test_9>:
800001e0:	00000213          	li	tp,0
800001e4:	f00ff0b7          	lui	ra,0xf00ff
800001e8:	00f08093          	addi	ra,ra,15 # f00ff00f <_end+0x700fd00f>
800001ec:	0f00e713          	ori	a4,ra,240
800001f0:	00000013          	nop
800001f4:	00000013          	nop
800001f8:	00070313          	mv	t1,a4
800001fc:	00120213          	addi	tp,tp,1 # 1 <_start-0x7fffffff>
80000200:	00200293          	li	t0,2
80000204:	fe5210e3          	bne	tp,t0,800001e4 <test_9+0x4>
80000208:	f00ff3b7          	lui	t2,0xf00ff
8000020c:	0ff38393          	addi	t2,t2,255 # f00ff0ff <_end+0x700fd0ff>
80000210:	00900193          	li	gp,9
80000214:	0a731e63          	bne	t1,t2,800002d0 <fail>

80000218 <test_10>:
80000218:	00000213          	li	tp,0
8000021c:	0ff010b7          	lui	ra,0xff01
80000220:	ff008093          	addi	ra,ra,-16 # ff00ff0 <_start-0x700ff010>
80000224:	0f00e713          	ori	a4,ra,240
80000228:	00120213          	addi	tp,tp,1 # 1 <_start-0x7fffffff>
8000022c:	00200293          	li	t0,2
80000230:	fe5216e3          	bne	tp,t0,8000021c <test_10+0x4>
80000234:	0ff013b7          	lui	t2,0xff01
80000238:	ff038393          	addi	t2,t2,-16 # ff00ff0 <_start-0x700ff010>
8000023c:	00a00193          	li	gp,10
80000240:	08771863          	bne	a4,t2,800002d0 <fail>

80000244 <test_11>:
80000244:	00000213          	li	tp,0
80000248:	00ff00b7          	lui	ra,0xff0
8000024c:	0ff08093          	addi	ra,ra,255 # ff00ff <_start-0x7f00ff01>
80000250:	00000013          	nop
80000254:	f0f0e713          	ori	a4,ra,-241
80000258:	00120213          	addi	tp,tp,1 # 1 <_start-0x7fffffff>
8000025c:	00200293          	li	t0,2
80000260:	fe5214e3          	bne	tp,t0,80000248 <test_11+0x4>
80000264:	fff00393          	li	t2,-1
80000268:	00b00193          	li	gp,11
8000026c:	06771263          	bne	a4,t2,800002d0 <fail>

80000270 <test_12>:
80000270:	00000213          	li	tp,0
80000274:	f00ff0b7          	lui	ra,0xf00ff
80000278:	00f08093          	addi	ra,ra,15 # f00ff00f <_end+0x700fd00f>
8000027c:	00000013          	nop
80000280:	00000013          	nop
80000284:	0f00e713          	ori	a4,ra,240
80000288:	00120213          	addi	tp,tp,1 # 1 <_start-0x7fffffff>
8000028c:	00200293          	li	t0,2
80000290:	fe5212e3          	bne	tp,t0,80000274 <test_12+0x4>
80000294:	f00ff3b7          	lui	t2,0xf00ff
80000298:	0ff38393          	addi	t2,t2,255 # f00ff0ff <_end+0x700fd0ff>
8000029c:	00c00193          	li	gp,12
800002a0:	02771863          	bne	a4,t2,800002d0 <fail>

800002a4 <test_13>:
800002a4:	0f006093          	ori	ra,zero,240
800002a8:	0f000393          	li	t2,240
800002ac:	00d00193          	li	gp,13
800002b0:	02709063          	bne	ra,t2,800002d0 <fail>

800002b4 <test_14>:
800002b4:	00ff00b7          	lui	ra,0xff0
800002b8:	0ff08093          	addi	ra,ra,255 # ff00ff <_start-0x7f00ff01>
800002bc:	70f0e013          	ori	zero,ra,1807
800002c0:	00000393          	li	t2,0
800002c4:	00e00193          	li	gp,14
800002c8:	00701463          	bne	zero,t2,800002d0 <fail>
800002cc:	00301c63          	bne	zero,gp,800002e4 <pass>

800002d0 <fail>:
800002d0:	0ff0000f          	fence
800002d4:	00018063          	beqz	gp,800002d4 <fail+0x4>
800002d8:	00119193          	slli	gp,gp,0x1
800002dc:	0011e193          	ori	gp,gp,1
800002e0:	00000073          	ecall

800002e4 <pass>:
800002e4:	0ff0000f          	fence
800002e8:	00100193          	li	gp,1
800002ec:	00000073          	ecall
800002f0:	c0001073          	unimp
800002f4:	0000                	unimp
800002f6:	0000                	unimp
800002f8:	0000                	unimp
800002fa:	0000                	unimp
