
rv32ui-p-xori:     file format elf32-littleriscv


Disassembly of section .text.init:

80000000 <_start>:
80000000:	0480006f          	j	80000048 <reset_vector>

80000004 <trap_vector>:
80000004:	34202f73          	csrr	t5,mcause
80000008:	00800f93          	li	t6,8
8000000c:	03ff0863          	beq	t5,t6,8000003c <write_tohost>
80000010:	00900f93          	li	t6,9
80000014:	03ff0463          	beq	t5,t6,8000003c <write_tohost>
80000018:	00b00f93          	li	t6,11
8000001c:	03ff0063          	beq	t5,t6,8000003c <write_tohost>
80000020:	00000f13          	li	t5,0
80000024:	000f0463          	beqz	t5,8000002c <trap_vector+0x28>
80000028:	000f0067          	jr	t5
8000002c:	34202f73          	csrr	t5,mcause
80000030:	000f5463          	bgez	t5,80000038 <handle_exception>
80000034:	0040006f          	j	80000038 <handle_exception>

80000038 <handle_exception>:
80000038:	5391e193          	ori	gp,gp,1337

8000003c <write_tohost>:
8000003c:	00001f17          	auipc	t5,0x1
80000040:	fc3f2223          	sw	gp,-60(t5) # 80001000 <tohost>
80000044:	ff9ff06f          	j	8000003c <write_tohost>

80000048 <reset_vector>:
80000048:	f1402573          	csrr	a0,mhartid
8000004c:	00051063          	bnez	a0,8000004c <reset_vector+0x4>
80000050:	00000297          	auipc	t0,0x0
80000054:	01028293          	addi	t0,t0,16 # 80000060 <reset_vector+0x18>
80000058:	30529073          	csrw	mtvec,t0
8000005c:	18005073          	csrwi	satp,0
80000060:	00000297          	auipc	t0,0x0
80000064:	01c28293          	addi	t0,t0,28 # 8000007c <reset_vector+0x34>
80000068:	30529073          	csrw	mtvec,t0
8000006c:	fff00293          	li	t0,-1
80000070:	3b029073          	csrw	pmpaddr0,t0
80000074:	01f00293          	li	t0,31
80000078:	3a029073          	csrw	pmpcfg0,t0
8000007c:	00000297          	auipc	t0,0x0
80000080:	01828293          	addi	t0,t0,24 # 80000094 <reset_vector+0x4c>
80000084:	30529073          	csrw	mtvec,t0
80000088:	30205073          	csrwi	medeleg,0
8000008c:	30305073          	csrwi	mideleg,0
80000090:	30405073          	csrwi	mie,0
80000094:	00000193          	li	gp,0
80000098:	00000297          	auipc	t0,0x0
8000009c:	f6c28293          	addi	t0,t0,-148 # 80000004 <trap_vector>
800000a0:	30529073          	csrw	mtvec,t0
800000a4:	00100513          	li	a0,1
800000a8:	01f51513          	slli	a0,a0,0x1f
800000ac:	00054863          	bltz	a0,800000bc <reset_vector+0x74>
800000b0:	0ff0000f          	fence
800000b4:	00100193          	li	gp,1
800000b8:	00000073          	ecall
800000bc:	00000293          	li	t0,0
800000c0:	00028e63          	beqz	t0,800000dc <reset_vector+0x94>
800000c4:	10529073          	csrw	stvec,t0
800000c8:	0000b2b7          	lui	t0,0xb
800000cc:	10928293          	addi	t0,t0,265 # b109 <_start-0x7fff4ef7>
800000d0:	30229073          	csrw	medeleg,t0
800000d4:	30202373          	csrr	t1,medeleg
800000d8:	f66290e3          	bne	t0,t1,80000038 <handle_exception>
800000dc:	30005073          	csrwi	mstatus,0
800000e0:	00000297          	auipc	t0,0x0
800000e4:	01428293          	addi	t0,t0,20 # 800000f4 <test_2>
800000e8:	34129073          	csrw	mepc,t0
800000ec:	f1402573          	csrr	a0,mhartid
800000f0:	30200073          	mret

800000f4 <test_2>:
800000f4:	00ff10b7          	lui	ra,0xff1
800000f8:	f0008093          	addi	ra,ra,-256 # ff0f00 <_start-0x7f00f100>
800000fc:	f0f0c713          	xori	a4,ra,-241
80000100:	ff00f3b7          	lui	t2,0xff00f
80000104:	00f38393          	addi	t2,t2,15 # ff00f00f <_end+0x7f00d00f>
80000108:	00200193          	li	gp,2
8000010c:	1c771663          	bne	a4,t2,800002d8 <fail>

80000110 <test_3>:
80000110:	0ff010b7          	lui	ra,0xff01
80000114:	ff008093          	addi	ra,ra,-16 # ff00ff0 <_start-0x700ff010>
80000118:	0f00c713          	xori	a4,ra,240
8000011c:	0ff013b7          	lui	t2,0xff01
80000120:	f0038393          	addi	t2,t2,-256 # ff00f00 <_start-0x700ff100>
80000124:	00300193          	li	gp,3
80000128:	1a771863          	bne	a4,t2,800002d8 <fail>

8000012c <test_4>:
8000012c:	00ff10b7          	lui	ra,0xff1
80000130:	8ff08093          	addi	ra,ra,-1793 # ff08ff <_start-0x7f00f701>
80000134:	70f0c713          	xori	a4,ra,1807
80000138:	00ff13b7          	lui	t2,0xff1
8000013c:	ff038393          	addi	t2,t2,-16 # ff0ff0 <_start-0x7f00f010>
80000140:	00400193          	li	gp,4
80000144:	18771a63          	bne	a4,t2,800002d8 <fail>

80000148 <test_5>:
80000148:	f00ff0b7          	lui	ra,0xf00ff
8000014c:	00f08093          	addi	ra,ra,15 # f00ff00f <_end+0x700fd00f>
80000150:	0f00c713          	xori	a4,ra,240
80000154:	f00ff3b7          	lui	t2,0xf00ff
80000158:	0ff38393          	addi	t2,t2,255 # f00ff0ff <_end+0x700fd0ff>
8000015c:	00500193          	li	gp,5
80000160:	16771c63          	bne	a4,t2,800002d8 <fail>

80000164 <test_6>:
80000164:	ff00f0b7          	lui	ra,0xff00f
80000168:	70008093          	addi	ra,ra,1792 # ff00f700 <_end+0x7f00d700>
8000016c:	70f0c093          	xori	ra,ra,1807
80000170:	ff00f3b7          	lui	t2,0xff00f
80000174:	00f38393          	addi	t2,t2,15 # ff00f00f <_end+0x7f00d00f>
80000178:	00600193          	li	gp,6
8000017c:	14709e63          	bne	ra,t2,800002d8 <fail>

80000180 <test_7>:
80000180:	00000213          	li	tp,0
80000184:	0ff010b7          	lui	ra,0xff01
80000188:	ff008093          	addi	ra,ra,-16 # ff00ff0 <_start-0x700ff010>
8000018c:	0f00c713          	xori	a4,ra,240
80000190:	00070313          	mv	t1,a4
80000194:	00120213          	addi	tp,tp,1 # 1 <_start-0x7fffffff>
80000198:	00200293          	li	t0,2
8000019c:	fe5214e3          	bne	tp,t0,80000184 <test_7+0x4>
800001a0:	0ff013b7          	lui	t2,0xff01
800001a4:	f0038393          	addi	t2,t2,-256 # ff00f00 <_start-0x700ff100>
800001a8:	00700193          	li	gp,7
800001ac:	12731663          	bne	t1,t2,800002d8 <fail>

800001b0 <test_8>:
800001b0:	00000213          	li	tp,0
800001b4:	00ff10b7          	lui	ra,0xff1
800001b8:	8ff08093          	addi	ra,ra,-1793 # ff08ff <_start-0x7f00f701>
800001bc:	70f0c713          	xori	a4,ra,1807
800001c0:	00000013          	nop
800001c4:	00070313          	mv	t1,a4
800001c8:	00120213          	addi	tp,tp,1 # 1 <_start-0x7fffffff>
800001cc:	00200293          	li	t0,2
800001d0:	fe5212e3          	bne	tp,t0,800001b4 <test_8+0x4>
800001d4:	00ff13b7          	lui	t2,0xff1
800001d8:	ff038393          	addi	t2,t2,-16 # ff0ff0 <_start-0x7f00f010>
800001dc:	00800193          	li	gp,8
800001e0:	0e731c63          	bne	t1,t2,800002d8 <fail>

800001e4 <test_9>:
800001e4:	00000213          	li	tp,0
800001e8:	f00ff0b7          	lui	ra,0xf00ff
800001ec:	00f08093          	addi	ra,ra,15 # f00ff00f <_end+0x700fd00f>
800001f0:	0f00c713          	xori	a4,ra,240
800001f4:	00000013          	nop
800001f8:	00000013          	nop
800001fc:	00070313          	mv	t1,a4
80000200:	00120213          	addi	tp,tp,1 # 1 <_start-0x7fffffff>
80000204:	00200293          	li	t0,2
80000208:	fe5210e3          	bne	tp,t0,800001e8 <test_9+0x4>
8000020c:	f00ff3b7          	lui	t2,0xf00ff
80000210:	0ff38393          	addi	t2,t2,255 # f00ff0ff <_end+0x700fd0ff>
80000214:	00900193          	li	gp,9
80000218:	0c731063          	bne	t1,t2,800002d8 <fail>

8000021c <test_10>:
8000021c:	00000213          	li	tp,0
80000220:	0ff010b7          	lui	ra,0xff01
80000224:	ff008093          	addi	ra,ra,-16 # ff00ff0 <_start-0x700ff010>
80000228:	0f00c713          	xori	a4,ra,240
8000022c:	00120213          	addi	tp,tp,1 # 1 <_start-0x7fffffff>
80000230:	00200293          	li	t0,2
80000234:	fe5216e3          	bne	tp,t0,80000220 <test_10+0x4>
80000238:	0ff013b7          	lui	t2,0xff01
8000023c:	f0038393          	addi	t2,t2,-256 # ff00f00 <_start-0x700ff100>
80000240:	00a00193          	li	gp,10
80000244:	08771a63          	bne	a4,t2,800002d8 <fail>

80000248 <test_11>:
80000248:	00000213          	li	tp,0
8000024c:	00ff10b7          	lui	ra,0xff1
80000250:	fff08093          	addi	ra,ra,-1 # ff0fff <_start-0x7f00f001>
80000254:	00000013          	nop
80000258:	00f0c713          	xori	a4,ra,15
8000025c:	00120213          	addi	tp,tp,1 # 1 <_start-0x7fffffff>
80000260:	00200293          	li	t0,2
80000264:	fe5214e3          	bne	tp,t0,8000024c <test_11+0x4>
80000268:	00ff13b7          	lui	t2,0xff1
8000026c:	ff038393          	addi	t2,t2,-16 # ff0ff0 <_start-0x7f00f010>
80000270:	00b00193          	li	gp,11
80000274:	06771263          	bne	a4,t2,800002d8 <fail>

80000278 <test_12>:
80000278:	00000213          	li	tp,0
8000027c:	f00ff0b7          	lui	ra,0xf00ff
80000280:	00f08093          	addi	ra,ra,15 # f00ff00f <_end+0x700fd00f>
80000284:	00000013          	nop
80000288:	00000013          	nop
8000028c:	0f00c713          	xori	a4,ra,240
80000290:	00120213          	addi	tp,tp,1 # 1 <_start-0x7fffffff>
80000294:	00200293          	li	t0,2
80000298:	fe5212e3          	bne	tp,t0,8000027c <test_12+0x4>
8000029c:	f00ff3b7          	lui	t2,0xf00ff
800002a0:	0ff38393          	addi	t2,t2,255 # f00ff0ff <_end+0x700fd0ff>
800002a4:	00c00193          	li	gp,12
800002a8:	02771863          	bne	a4,t2,800002d8 <fail>

800002ac <test_13>:
800002ac:	0f004093          	xori	ra,zero,240
800002b0:	0f000393          	li	t2,240
800002b4:	00d00193          	li	gp,13
800002b8:	02709063          	bne	ra,t2,800002d8 <fail>

800002bc <test_14>:
800002bc:	00ff00b7          	lui	ra,0xff0
800002c0:	0ff08093          	addi	ra,ra,255 # ff00ff <_start-0x7f00ff01>
800002c4:	70f0c013          	xori	zero,ra,1807
800002c8:	00000393          	li	t2,0
800002cc:	00e00193          	li	gp,14
800002d0:	00701463          	bne	zero,t2,800002d8 <fail>
800002d4:	00301c63          	bne	zero,gp,800002ec <pass>

800002d8 <fail>:
800002d8:	0ff0000f          	fence
800002dc:	00018063          	beqz	gp,800002dc <fail+0x4>
800002e0:	00119193          	slli	gp,gp,0x1
800002e4:	0011e193          	ori	gp,gp,1
800002e8:	00000073          	ecall

800002ec <pass>:
800002ec:	0ff0000f          	fence
800002f0:	00100193          	li	gp,1
800002f4:	00000073          	ecall
800002f8:	c0001073          	unimp
