
rv32ui-p-and:     file format elf32-littleriscv


Disassembly of section .text.init:

80000000 <_start>:
80000000:	0480006f          	j	80000048 <reset_vector>

80000004 <trap_vector>:
80000004:	34202f73          	csrr	t5,mcause
80000008:	00800f93          	li	t6,8
8000000c:	03ff0863          	beq	t5,t6,8000003c <write_tohost>
80000010:	00900f93          	li	t6,9
80000014:	03ff0463          	beq	t5,t6,8000003c <write_tohost>
80000018:	00b00f93          	li	t6,11
8000001c:	03ff0063          	beq	t5,t6,8000003c <write_tohost>
80000020:	00000f13          	li	t5,0
80000024:	000f0463          	beqz	t5,8000002c <trap_vector+0x28>
80000028:	000f0067          	jr	t5
8000002c:	34202f73          	csrr	t5,mcause
80000030:	000f5463          	bgez	t5,80000038 <handle_exception>
80000034:	0040006f          	j	80000038 <handle_exception>

80000038 <handle_exception>:
80000038:	5391e193          	ori	gp,gp,1337

8000003c <write_tohost>:
8000003c:	00001f17          	auipc	t5,0x1
80000040:	fc3f2223          	sw	gp,-60(t5) # 80001000 <tohost>
80000044:	ff9ff06f          	j	8000003c <write_tohost>

80000048 <reset_vector>:
80000048:	f1402573          	csrr	a0,mhartid
8000004c:	00051063          	bnez	a0,8000004c <reset_vector+0x4>
80000050:	00000297          	auipc	t0,0x0
80000054:	01028293          	addi	t0,t0,16 # 80000060 <reset_vector+0x18>
80000058:	30529073          	csrw	mtvec,t0
8000005c:	18005073          	csrwi	satp,0
80000060:	00000297          	auipc	t0,0x0
80000064:	01c28293          	addi	t0,t0,28 # 8000007c <reset_vector+0x34>
80000068:	30529073          	csrw	mtvec,t0
8000006c:	fff00293          	li	t0,-1
80000070:	3b029073          	csrw	pmpaddr0,t0
80000074:	01f00293          	li	t0,31
80000078:	3a029073          	csrw	pmpcfg0,t0
8000007c:	00000297          	auipc	t0,0x0
80000080:	01828293          	addi	t0,t0,24 # 80000094 <reset_vector+0x4c>
80000084:	30529073          	csrw	mtvec,t0
80000088:	30205073          	csrwi	medeleg,0
8000008c:	30305073          	csrwi	mideleg,0
80000090:	30405073          	csrwi	mie,0
80000094:	00000193          	li	gp,0
80000098:	00000297          	auipc	t0,0x0
8000009c:	f6c28293          	addi	t0,t0,-148 # 80000004 <trap_vector>
800000a0:	30529073          	csrw	mtvec,t0
800000a4:	00100513          	li	a0,1
800000a8:	01f51513          	slli	a0,a0,0x1f
800000ac:	00054863          	bltz	a0,800000bc <reset_vector+0x74>
800000b0:	0ff0000f          	fence
800000b4:	00100193          	li	gp,1
800000b8:	00000073          	ecall
800000bc:	00000293          	li	t0,0
800000c0:	00028e63          	beqz	t0,800000dc <reset_vector+0x94>
800000c4:	10529073          	csrw	stvec,t0
800000c8:	0000b2b7          	lui	t0,0xb
800000cc:	10928293          	addi	t0,t0,265 # b109 <_start-0x7fff4ef7>
800000d0:	30229073          	csrw	medeleg,t0
800000d4:	30202373          	csrr	t1,medeleg
800000d8:	f66290e3          	bne	t0,t1,80000038 <handle_exception>
800000dc:	30005073          	csrwi	mstatus,0
800000e0:	00000297          	auipc	t0,0x0
800000e4:	01428293          	addi	t0,t0,20 # 800000f4 <test_2>
800000e8:	34129073          	csrw	mepc,t0
800000ec:	f1402573          	csrr	a0,mhartid
800000f0:	30200073          	mret

800000f4 <test_2>:
800000f4:	ff0100b7          	lui	ra,0xff010
800000f8:	f0008093          	addi	ra,ra,-256 # ff00ff00 <_end+0x7f00df00>
800000fc:	0f0f1137          	lui	sp,0xf0f1
80000100:	f0f10113          	addi	sp,sp,-241 # f0f0f0f <_start-0x70f0f0f1>
80000104:	0020f733          	and	a4,ra,sp
80000108:	0f0013b7          	lui	t2,0xf001
8000010c:	f0038393          	addi	t2,t2,-256 # f000f00 <_start-0x70fff100>
80000110:	00200193          	li	gp,2
80000114:	48771c63          	bne	a4,t2,800005ac <fail>

80000118 <test_3>:
80000118:	0ff010b7          	lui	ra,0xff01
8000011c:	ff008093          	addi	ra,ra,-16 # ff00ff0 <_start-0x700ff010>
80000120:	f0f0f137          	lui	sp,0xf0f0f
80000124:	0f010113          	addi	sp,sp,240 # f0f0f0f0 <_end+0x70f0d0f0>
80000128:	0020f733          	and	a4,ra,sp
8000012c:	00f003b7          	lui	t2,0xf00
80000130:	0f038393          	addi	t2,t2,240 # f000f0 <_start-0x7f0fff10>
80000134:	00300193          	li	gp,3
80000138:	46771a63          	bne	a4,t2,800005ac <fail>

8000013c <test_4>:
8000013c:	00ff00b7          	lui	ra,0xff0
80000140:	0ff08093          	addi	ra,ra,255 # ff00ff <_start-0x7f00ff01>
80000144:	0f0f1137          	lui	sp,0xf0f1
80000148:	f0f10113          	addi	sp,sp,-241 # f0f0f0f <_start-0x70f0f0f1>
8000014c:	0020f733          	and	a4,ra,sp
80000150:	000f03b7          	lui	t2,0xf0
80000154:	00f38393          	addi	t2,t2,15 # f000f <_start-0x7ff0fff1>
80000158:	00400193          	li	gp,4
8000015c:	44771863          	bne	a4,t2,800005ac <fail>

80000160 <test_5>:
80000160:	f00ff0b7          	lui	ra,0xf00ff
80000164:	00f08093          	addi	ra,ra,15 # f00ff00f <_end+0x700fd00f>
80000168:	f0f0f137          	lui	sp,0xf0f0f
8000016c:	0f010113          	addi	sp,sp,240 # f0f0f0f0 <_end+0x70f0d0f0>
80000170:	0020f733          	and	a4,ra,sp
80000174:	f000f3b7          	lui	t2,0xf000f
80000178:	00500193          	li	gp,5
8000017c:	42771863          	bne	a4,t2,800005ac <fail>

80000180 <test_6>:
80000180:	ff0100b7          	lui	ra,0xff010
80000184:	f0008093          	addi	ra,ra,-256 # ff00ff00 <_end+0x7f00df00>
80000188:	0f0f1137          	lui	sp,0xf0f1
8000018c:	f0f10113          	addi	sp,sp,-241 # f0f0f0f <_start-0x70f0f0f1>
80000190:	0020f0b3          	and	ra,ra,sp
80000194:	0f0013b7          	lui	t2,0xf001
80000198:	f0038393          	addi	t2,t2,-256 # f000f00 <_start-0x70fff100>
8000019c:	00600193          	li	gp,6
800001a0:	40709663          	bne	ra,t2,800005ac <fail>

800001a4 <test_7>:
800001a4:	0ff010b7          	lui	ra,0xff01
800001a8:	ff008093          	addi	ra,ra,-16 # ff00ff0 <_start-0x700ff010>
800001ac:	f0f0f137          	lui	sp,0xf0f0f
800001b0:	0f010113          	addi	sp,sp,240 # f0f0f0f0 <_end+0x70f0d0f0>
800001b4:	0020f133          	and	sp,ra,sp
800001b8:	00f003b7          	lui	t2,0xf00
800001bc:	0f038393          	addi	t2,t2,240 # f000f0 <_start-0x7f0fff10>
800001c0:	00700193          	li	gp,7
800001c4:	3e711463          	bne	sp,t2,800005ac <fail>

800001c8 <test_8>:
800001c8:	ff0100b7          	lui	ra,0xff010
800001cc:	f0008093          	addi	ra,ra,-256 # ff00ff00 <_end+0x7f00df00>
800001d0:	0010f0b3          	and	ra,ra,ra
800001d4:	ff0103b7          	lui	t2,0xff010
800001d8:	f0038393          	addi	t2,t2,-256 # ff00ff00 <_end+0x7f00df00>
800001dc:	00800193          	li	gp,8
800001e0:	3c709663          	bne	ra,t2,800005ac <fail>

800001e4 <test_9>:
800001e4:	00000213          	li	tp,0
800001e8:	ff0100b7          	lui	ra,0xff010
800001ec:	f0008093          	addi	ra,ra,-256 # ff00ff00 <_end+0x7f00df00>
800001f0:	0f0f1137          	lui	sp,0xf0f1
800001f4:	f0f10113          	addi	sp,sp,-241 # f0f0f0f <_start-0x70f0f0f1>
800001f8:	0020f733          	and	a4,ra,sp
800001fc:	00070313          	mv	t1,a4
80000200:	00120213          	addi	tp,tp,1 # 1 <_start-0x7fffffff>
80000204:	00200293          	li	t0,2
80000208:	fe5210e3          	bne	tp,t0,800001e8 <test_9+0x4>
8000020c:	0f0013b7          	lui	t2,0xf001
80000210:	f0038393          	addi	t2,t2,-256 # f000f00 <_start-0x70fff100>
80000214:	00900193          	li	gp,9
80000218:	38731a63          	bne	t1,t2,800005ac <fail>

8000021c <test_10>:
8000021c:	00000213          	li	tp,0
80000220:	0ff010b7          	lui	ra,0xff01
80000224:	ff008093          	addi	ra,ra,-16 # ff00ff0 <_start-0x700ff010>
80000228:	f0f0f137          	lui	sp,0xf0f0f
8000022c:	0f010113          	addi	sp,sp,240 # f0f0f0f0 <_end+0x70f0d0f0>
80000230:	0020f733          	and	a4,ra,sp
80000234:	00000013          	nop
80000238:	00070313          	mv	t1,a4
8000023c:	00120213          	addi	tp,tp,1 # 1 <_start-0x7fffffff>
80000240:	00200293          	li	t0,2
80000244:	fc521ee3          	bne	tp,t0,80000220 <test_10+0x4>
80000248:	00f003b7          	lui	t2,0xf00
8000024c:	0f038393          	addi	t2,t2,240 # f000f0 <_start-0x7f0fff10>
80000250:	00a00193          	li	gp,10
80000254:	34731c63          	bne	t1,t2,800005ac <fail>

80000258 <test_11>:
80000258:	00000213          	li	tp,0
8000025c:	00ff00b7          	lui	ra,0xff0
80000260:	0ff08093          	addi	ra,ra,255 # ff00ff <_start-0x7f00ff01>
80000264:	0f0f1137          	lui	sp,0xf0f1
80000268:	f0f10113          	addi	sp,sp,-241 # f0f0f0f <_start-0x70f0f0f1>
8000026c:	0020f733          	and	a4,ra,sp
80000270:	00000013          	nop
80000274:	00000013          	nop
80000278:	00070313          	mv	t1,a4
8000027c:	00120213          	addi	tp,tp,1 # 1 <_start-0x7fffffff>
80000280:	00200293          	li	t0,2
80000284:	fc521ce3          	bne	tp,t0,8000025c <test_11+0x4>
80000288:	000f03b7          	lui	t2,0xf0
8000028c:	00f38393          	addi	t2,t2,15 # f000f <_start-0x7ff0fff1>
80000290:	00b00193          	li	gp,11
80000294:	30731c63          	bne	t1,t2,800005ac <fail>

80000298 <test_12>:
80000298:	00000213          	li	tp,0
8000029c:	ff0100b7          	lui	ra,0xff010
800002a0:	f0008093          	addi	ra,ra,-256 # ff00ff00 <_end+0x7f00df00>
800002a4:	0f0f1137          	lui	sp,0xf0f1
800002a8:	f0f10113          	addi	sp,sp,-241 # f0f0f0f <_start-0x70f0f0f1>
800002ac:	0020f733          	and	a4,ra,sp
800002b0:	00120213          	addi	tp,tp,1 # 1 <_start-0x7fffffff>
800002b4:	00200293          	li	t0,2
800002b8:	fe5212e3          	bne	tp,t0,8000029c <test_12+0x4>
800002bc:	0f0013b7          	lui	t2,0xf001
800002c0:	f0038393          	addi	t2,t2,-256 # f000f00 <_start-0x70fff100>
800002c4:	00c00193          	li	gp,12
800002c8:	2e771263          	bne	a4,t2,800005ac <fail>

800002cc <test_13>:
800002cc:	00000213          	li	tp,0
800002d0:	0ff010b7          	lui	ra,0xff01
800002d4:	ff008093          	addi	ra,ra,-16 # ff00ff0 <_start-0x700ff010>
800002d8:	f0f0f137          	lui	sp,0xf0f0f
800002dc:	0f010113          	addi	sp,sp,240 # f0f0f0f0 <_end+0x70f0d0f0>
800002e0:	00000013          	nop
800002e4:	0020f733          	and	a4,ra,sp
800002e8:	00120213          	addi	tp,tp,1 # 1 <_start-0x7fffffff>
800002ec:	00200293          	li	t0,2
800002f0:	fe5210e3          	bne	tp,t0,800002d0 <test_13+0x4>
800002f4:	00f003b7          	lui	t2,0xf00
800002f8:	0f038393          	addi	t2,t2,240 # f000f0 <_start-0x7f0fff10>
800002fc:	00d00193          	li	gp,13
80000300:	2a771663          	bne	a4,t2,800005ac <fail>

80000304 <test_14>:
80000304:	00000213          	li	tp,0
80000308:	00ff00b7          	lui	ra,0xff0
8000030c:	0ff08093          	addi	ra,ra,255 # ff00ff <_start-0x7f00ff01>
80000310:	0f0f1137          	lui	sp,0xf0f1
80000314:	f0f10113          	addi	sp,sp,-241 # f0f0f0f <_start-0x70f0f0f1>
80000318:	00000013          	nop
8000031c:	00000013          	nop
80000320:	0020f733          	and	a4,ra,sp
80000324:	00120213          	addi	tp,tp,1 # 1 <_start-0x7fffffff>
80000328:	00200293          	li	t0,2
8000032c:	fc521ee3          	bne	tp,t0,80000308 <test_14+0x4>
80000330:	000f03b7          	lui	t2,0xf0
80000334:	00f38393          	addi	t2,t2,15 # f000f <_start-0x7ff0fff1>
80000338:	00e00193          	li	gp,14
8000033c:	26771863          	bne	a4,t2,800005ac <fail>

80000340 <test_15>:
80000340:	00000213          	li	tp,0
80000344:	ff0100b7          	lui	ra,0xff010
80000348:	f0008093          	addi	ra,ra,-256 # ff00ff00 <_end+0x7f00df00>
8000034c:	00000013          	nop
80000350:	0f0f1137          	lui	sp,0xf0f1
80000354:	f0f10113          	addi	sp,sp,-241 # f0f0f0f <_start-0x70f0f0f1>
80000358:	0020f733          	and	a4,ra,sp
8000035c:	00120213          	addi	tp,tp,1 # 1 <_start-0x7fffffff>
80000360:	00200293          	li	t0,2
80000364:	fe5210e3          	bne	tp,t0,80000344 <test_15+0x4>
80000368:	0f0013b7          	lui	t2,0xf001
8000036c:	f0038393          	addi	t2,t2,-256 # f000f00 <_start-0x70fff100>
80000370:	00f00193          	li	gp,15
80000374:	22771c63          	bne	a4,t2,800005ac <fail>

80000378 <test_16>:
80000378:	00000213          	li	tp,0
8000037c:	0ff010b7          	lui	ra,0xff01
80000380:	ff008093          	addi	ra,ra,-16 # ff00ff0 <_start-0x700ff010>
80000384:	00000013          	nop
80000388:	f0f0f137          	lui	sp,0xf0f0f
8000038c:	0f010113          	addi	sp,sp,240 # f0f0f0f0 <_end+0x70f0d0f0>
80000390:	00000013          	nop
80000394:	0020f733          	and	a4,ra,sp
80000398:	00120213          	addi	tp,tp,1 # 1 <_start-0x7fffffff>
8000039c:	00200293          	li	t0,2
800003a0:	fc521ee3          	bne	tp,t0,8000037c <test_16+0x4>
800003a4:	00f003b7          	lui	t2,0xf00
800003a8:	0f038393          	addi	t2,t2,240 # f000f0 <_start-0x7f0fff10>
800003ac:	01000193          	li	gp,16
800003b0:	1e771e63          	bne	a4,t2,800005ac <fail>

800003b4 <test_17>:
800003b4:	00000213          	li	tp,0
800003b8:	00ff00b7          	lui	ra,0xff0
800003bc:	0ff08093          	addi	ra,ra,255 # ff00ff <_start-0x7f00ff01>
800003c0:	00000013          	nop
800003c4:	00000013          	nop
800003c8:	0f0f1137          	lui	sp,0xf0f1
800003cc:	f0f10113          	addi	sp,sp,-241 # f0f0f0f <_start-0x70f0f0f1>
800003d0:	0020f733          	and	a4,ra,sp
800003d4:	00120213          	addi	tp,tp,1 # 1 <_start-0x7fffffff>
800003d8:	00200293          	li	t0,2
800003dc:	fc521ee3          	bne	tp,t0,800003b8 <test_17+0x4>
800003e0:	000f03b7          	lui	t2,0xf0
800003e4:	00f38393          	addi	t2,t2,15 # f000f <_start-0x7ff0fff1>
800003e8:	01100193          	li	gp,17
800003ec:	1c771063          	bne	a4,t2,800005ac <fail>

800003f0 <test_18>:
800003f0:	00000213          	li	tp,0
800003f4:	0f0f1137          	lui	sp,0xf0f1
800003f8:	f0f10113          	addi	sp,sp,-241 # f0f0f0f <_start-0x70f0f0f1>
800003fc:	ff0100b7          	lui	ra,0xff010
80000400:	f0008093          	addi	ra,ra,-256 # ff00ff00 <_end+0x7f00df00>
80000404:	0020f733          	and	a4,ra,sp
80000408:	00120213          	addi	tp,tp,1 # 1 <_start-0x7fffffff>
8000040c:	00200293          	li	t0,2
80000410:	fe5212e3          	bne	tp,t0,800003f4 <test_18+0x4>
80000414:	0f0013b7          	lui	t2,0xf001
80000418:	f0038393          	addi	t2,t2,-256 # f000f00 <_start-0x70fff100>
8000041c:	01200193          	li	gp,18
80000420:	18771663          	bne	a4,t2,800005ac <fail>

80000424 <test_19>:
80000424:	00000213          	li	tp,0
80000428:	f0f0f137          	lui	sp,0xf0f0f
8000042c:	0f010113          	addi	sp,sp,240 # f0f0f0f0 <_end+0x70f0d0f0>
80000430:	0ff010b7          	lui	ra,0xff01
80000434:	ff008093          	addi	ra,ra,-16 # ff00ff0 <_start-0x700ff010>
80000438:	00000013          	nop
8000043c:	0020f733          	and	a4,ra,sp
80000440:	00120213          	addi	tp,tp,1 # 1 <_start-0x7fffffff>
80000444:	00200293          	li	t0,2
80000448:	fe5210e3          	bne	tp,t0,80000428 <test_19+0x4>
8000044c:	00f003b7          	lui	t2,0xf00
80000450:	0f038393          	addi	t2,t2,240 # f000f0 <_start-0x7f0fff10>
80000454:	01300193          	li	gp,19
80000458:	14771a63          	bne	a4,t2,800005ac <fail>

8000045c <test_20>:
8000045c:	00000213          	li	tp,0
80000460:	0f0f1137          	lui	sp,0xf0f1
80000464:	f0f10113          	addi	sp,sp,-241 # f0f0f0f <_start-0x70f0f0f1>
80000468:	00ff00b7          	lui	ra,0xff0
8000046c:	0ff08093          	addi	ra,ra,255 # ff00ff <_start-0x7f00ff01>
80000470:	00000013          	nop
80000474:	00000013          	nop
80000478:	0020f733          	and	a4,ra,sp
8000047c:	00120213          	addi	tp,tp,1 # 1 <_start-0x7fffffff>
80000480:	00200293          	li	t0,2
80000484:	fc521ee3          	bne	tp,t0,80000460 <test_20+0x4>
80000488:	000f03b7          	lui	t2,0xf0
8000048c:	00f38393          	addi	t2,t2,15 # f000f <_start-0x7ff0fff1>
80000490:	01400193          	li	gp,20
80000494:	10771c63          	bne	a4,t2,800005ac <fail>

80000498 <test_21>:
80000498:	00000213          	li	tp,0
8000049c:	0f0f1137          	lui	sp,0xf0f1
800004a0:	f0f10113          	addi	sp,sp,-241 # f0f0f0f <_start-0x70f0f0f1>
800004a4:	00000013          	nop
800004a8:	ff0100b7          	lui	ra,0xff010
800004ac:	f0008093          	addi	ra,ra,-256 # ff00ff00 <_end+0x7f00df00>
800004b0:	0020f733          	and	a4,ra,sp
800004b4:	00120213          	addi	tp,tp,1 # 1 <_start-0x7fffffff>
800004b8:	00200293          	li	t0,2
800004bc:	fe5210e3          	bne	tp,t0,8000049c <test_21+0x4>
800004c0:	0f0013b7          	lui	t2,0xf001
800004c4:	f0038393          	addi	t2,t2,-256 # f000f00 <_start-0x70fff100>
800004c8:	01500193          	li	gp,21
800004cc:	0e771063          	bne	a4,t2,800005ac <fail>

800004d0 <test_22>:
800004d0:	00000213          	li	tp,0
800004d4:	f0f0f137          	lui	sp,0xf0f0f
800004d8:	0f010113          	addi	sp,sp,240 # f0f0f0f0 <_end+0x70f0d0f0>
800004dc:	00000013          	nop
800004e0:	0ff010b7          	lui	ra,0xff01
800004e4:	ff008093          	addi	ra,ra,-16 # ff00ff0 <_start-0x700ff010>
800004e8:	00000013          	nop
800004ec:	0020f733          	and	a4,ra,sp
800004f0:	00120213          	addi	tp,tp,1 # 1 <_start-0x7fffffff>
800004f4:	00200293          	li	t0,2
800004f8:	fc521ee3          	bne	tp,t0,800004d4 <test_22+0x4>
800004fc:	00f003b7          	lui	t2,0xf00
80000500:	0f038393          	addi	t2,t2,240 # f000f0 <_start-0x7f0fff10>
80000504:	01600193          	li	gp,22
80000508:	0a771263          	bne	a4,t2,800005ac <fail>

8000050c <test_23>:
8000050c:	00000213          	li	tp,0
80000510:	0f0f1137          	lui	sp,0xf0f1
80000514:	f0f10113          	addi	sp,sp,-241 # f0f0f0f <_start-0x70f0f0f1>
80000518:	00000013          	nop
8000051c:	00000013          	nop
80000520:	00ff00b7          	lui	ra,0xff0
80000524:	0ff08093          	addi	ra,ra,255 # ff00ff <_start-0x7f00ff01>
80000528:	0020f733          	and	a4,ra,sp
8000052c:	00120213          	addi	tp,tp,1 # 1 <_start-0x7fffffff>
80000530:	00200293          	li	t0,2
80000534:	fc521ee3          	bne	tp,t0,80000510 <test_23+0x4>
80000538:	000f03b7          	lui	t2,0xf0
8000053c:	00f38393          	addi	t2,t2,15 # f000f <_start-0x7ff0fff1>
80000540:	01700193          	li	gp,23
80000544:	06771463          	bne	a4,t2,800005ac <fail>

80000548 <test_24>:
80000548:	ff0100b7          	lui	ra,0xff010
8000054c:	f0008093          	addi	ra,ra,-256 # ff00ff00 <_end+0x7f00df00>
80000550:	00107133          	and	sp,zero,ra
80000554:	00000393          	li	t2,0
80000558:	01800193          	li	gp,24
8000055c:	04711863          	bne	sp,t2,800005ac <fail>

80000560 <test_25>:
80000560:	00ff00b7          	lui	ra,0xff0
80000564:	0ff08093          	addi	ra,ra,255 # ff00ff <_start-0x7f00ff01>
80000568:	0000f133          	and	sp,ra,zero
8000056c:	00000393          	li	t2,0
80000570:	01900193          	li	gp,25
80000574:	02711c63          	bne	sp,t2,800005ac <fail>

80000578 <test_26>:
80000578:	000070b3          	and	ra,zero,zero
8000057c:	00000393          	li	t2,0
80000580:	01a00193          	li	gp,26
80000584:	02709463          	bne	ra,t2,800005ac <fail>

80000588 <test_27>:
80000588:	111110b7          	lui	ra,0x11111
8000058c:	11108093          	addi	ra,ra,273 # 11111111 <_start-0x6eeeeeef>
80000590:	22222137          	lui	sp,0x22222
80000594:	22210113          	addi	sp,sp,546 # 22222222 <_start-0x5dddddde>
80000598:	0020f033          	and	zero,ra,sp
8000059c:	00000393          	li	t2,0
800005a0:	01b00193          	li	gp,27
800005a4:	00701463          	bne	zero,t2,800005ac <fail>
800005a8:	00301c63          	bne	zero,gp,800005c0 <pass>

800005ac <fail>:
800005ac:	0ff0000f          	fence
800005b0:	00018063          	beqz	gp,800005b0 <fail+0x4>
800005b4:	00119193          	slli	gp,gp,0x1
800005b8:	0011e193          	ori	gp,gp,1
800005bc:	00000073          	ecall

800005c0 <pass>:
800005c0:	0ff0000f          	fence
800005c4:	00100193          	li	gp,1
800005c8:	00000073          	ecall
800005cc:	c0001073          	unimp
800005d0:	0000                	unimp
800005d2:	0000                	unimp
800005d4:	0000                	unimp
800005d6:	0000                	unimp
800005d8:	0000                	unimp
800005da:	0000                	unimp
800005dc:	0000                	unimp
800005de:	0000                	unimp
800005e0:	0000                	unimp
800005e2:	0000                	unimp
800005e4:	0000                	unimp
800005e6:	0000                	unimp
800005e8:	0000                	unimp
800005ea:	0000                	unimp
800005ec:	0000                	unimp
800005ee:	0000                	unimp
800005f0:	0000                	unimp
800005f2:	0000                	unimp
800005f4:	0000                	unimp
800005f6:	0000                	unimp
800005f8:	0000                	unimp
800005fa:	0000                	unimp
