
rv32ui-p-bgeu:     file format elf32-littleriscv


Disassembly of section .text.init:

80000000 <_start>:
80000000:	0480006f          	j	80000048 <reset_vector>

80000004 <trap_vector>:
80000004:	34202f73          	csrr	t5,mcause
80000008:	00800f93          	li	t6,8
8000000c:	03ff0863          	beq	t5,t6,8000003c <write_tohost>
80000010:	00900f93          	li	t6,9
80000014:	03ff0463          	beq	t5,t6,8000003c <write_tohost>
80000018:	00b00f93          	li	t6,11
8000001c:	03ff0063          	beq	t5,t6,8000003c <write_tohost>
80000020:	00000f13          	li	t5,0
80000024:	000f0463          	beqz	t5,8000002c <trap_vector+0x28>
80000028:	000f0067          	jr	t5
8000002c:	34202f73          	csrr	t5,mcause
80000030:	000f5463          	bgez	t5,80000038 <handle_exception>
80000034:	0040006f          	j	80000038 <handle_exception>

80000038 <handle_exception>:
80000038:	5391e193          	ori	gp,gp,1337

8000003c <write_tohost>:
8000003c:	00001f17          	auipc	t5,0x1
80000040:	fc3f2223          	sw	gp,-60(t5) # 80001000 <tohost>
80000044:	ff9ff06f          	j	8000003c <write_tohost>

80000048 <reset_vector>:
80000048:	f1402573          	csrr	a0,mhartid
8000004c:	00051063          	bnez	a0,8000004c <reset_vector+0x4>
80000050:	00000297          	auipc	t0,0x0
80000054:	01028293          	addi	t0,t0,16 # 80000060 <reset_vector+0x18>
80000058:	30529073          	csrw	mtvec,t0
8000005c:	18005073          	csrwi	satp,0
80000060:	00000297          	auipc	t0,0x0
80000064:	01c28293          	addi	t0,t0,28 # 8000007c <reset_vector+0x34>
80000068:	30529073          	csrw	mtvec,t0
8000006c:	fff00293          	li	t0,-1
80000070:	3b029073          	csrw	pmpaddr0,t0
80000074:	01f00293          	li	t0,31
80000078:	3a029073          	csrw	pmpcfg0,t0
8000007c:	00000297          	auipc	t0,0x0
80000080:	01828293          	addi	t0,t0,24 # 80000094 <reset_vector+0x4c>
80000084:	30529073          	csrw	mtvec,t0
80000088:	30205073          	csrwi	medeleg,0
8000008c:	30305073          	csrwi	mideleg,0
80000090:	30405073          	csrwi	mie,0
80000094:	00000193          	li	gp,0
80000098:	00000297          	auipc	t0,0x0
8000009c:	f6c28293          	addi	t0,t0,-148 # 80000004 <trap_vector>
800000a0:	30529073          	csrw	mtvec,t0
800000a4:	00100513          	li	a0,1
800000a8:	01f51513          	slli	a0,a0,0x1f
800000ac:	00054863          	bltz	a0,800000bc <reset_vector+0x74>
800000b0:	0ff0000f          	fence
800000b4:	00100193          	li	gp,1
800000b8:	00000073          	ecall
800000bc:	00000293          	li	t0,0
800000c0:	00028e63          	beqz	t0,800000dc <reset_vector+0x94>
800000c4:	10529073          	csrw	stvec,t0
800000c8:	0000b2b7          	lui	t0,0xb
800000cc:	10928293          	addi	t0,t0,265 # b109 <_start-0x7fff4ef7>
800000d0:	30229073          	csrw	medeleg,t0
800000d4:	30202373          	csrr	t1,medeleg
800000d8:	f66290e3          	bne	t0,t1,80000038 <handle_exception>
800000dc:	30005073          	csrwi	mstatus,0
800000e0:	00000297          	auipc	t0,0x0
800000e4:	01428293          	addi	t0,t0,20 # 800000f4 <test_2>
800000e8:	34129073          	csrw	mepc,t0
800000ec:	f1402573          	csrr	a0,mhartid
800000f0:	30200073          	mret

800000f4 <test_2>:
800000f4:	00200193          	li	gp,2
800000f8:	00000093          	li	ra,0
800000fc:	00000113          	li	sp,0
80000100:	0020f663          	bgeu	ra,sp,8000010c <test_2+0x18>
80000104:	34301263          	bne	zero,gp,80000448 <fail>
80000108:	00301663          	bne	zero,gp,80000114 <test_3>
8000010c:	fe20fee3          	bgeu	ra,sp,80000108 <test_2+0x14>
80000110:	32301c63          	bne	zero,gp,80000448 <fail>

80000114 <test_3>:
80000114:	00300193          	li	gp,3
80000118:	00100093          	li	ra,1
8000011c:	00100113          	li	sp,1
80000120:	0020f663          	bgeu	ra,sp,8000012c <test_3+0x18>
80000124:	32301263          	bne	zero,gp,80000448 <fail>
80000128:	00301663          	bne	zero,gp,80000134 <test_4>
8000012c:	fe20fee3          	bgeu	ra,sp,80000128 <test_3+0x14>
80000130:	30301c63          	bne	zero,gp,80000448 <fail>

80000134 <test_4>:
80000134:	00400193          	li	gp,4
80000138:	fff00093          	li	ra,-1
8000013c:	fff00113          	li	sp,-1
80000140:	0020f663          	bgeu	ra,sp,8000014c <test_4+0x18>
80000144:	30301263          	bne	zero,gp,80000448 <fail>
80000148:	00301663          	bne	zero,gp,80000154 <test_5>
8000014c:	fe20fee3          	bgeu	ra,sp,80000148 <test_4+0x14>
80000150:	2e301c63          	bne	zero,gp,80000448 <fail>

80000154 <test_5>:
80000154:	00500193          	li	gp,5
80000158:	00100093          	li	ra,1
8000015c:	00000113          	li	sp,0
80000160:	0020f663          	bgeu	ra,sp,8000016c <test_5+0x18>
80000164:	2e301263          	bne	zero,gp,80000448 <fail>
80000168:	00301663          	bne	zero,gp,80000174 <test_6>
8000016c:	fe20fee3          	bgeu	ra,sp,80000168 <test_5+0x14>
80000170:	2c301c63          	bne	zero,gp,80000448 <fail>

80000174 <test_6>:
80000174:	00600193          	li	gp,6
80000178:	fff00093          	li	ra,-1
8000017c:	ffe00113          	li	sp,-2
80000180:	0020f663          	bgeu	ra,sp,8000018c <test_6+0x18>
80000184:	2c301263          	bne	zero,gp,80000448 <fail>
80000188:	00301663          	bne	zero,gp,80000194 <test_7>
8000018c:	fe20fee3          	bgeu	ra,sp,80000188 <test_6+0x14>
80000190:	2a301c63          	bne	zero,gp,80000448 <fail>

80000194 <test_7>:
80000194:	00700193          	li	gp,7
80000198:	fff00093          	li	ra,-1
8000019c:	00000113          	li	sp,0
800001a0:	0020f663          	bgeu	ra,sp,800001ac <test_7+0x18>
800001a4:	2a301263          	bne	zero,gp,80000448 <fail>
800001a8:	00301663          	bne	zero,gp,800001b4 <test_8>
800001ac:	fe20fee3          	bgeu	ra,sp,800001a8 <test_7+0x14>
800001b0:	28301c63          	bne	zero,gp,80000448 <fail>

800001b4 <test_8>:
800001b4:	00800193          	li	gp,8
800001b8:	00000093          	li	ra,0
800001bc:	00100113          	li	sp,1
800001c0:	0020f463          	bgeu	ra,sp,800001c8 <test_8+0x14>
800001c4:	00301463          	bne	zero,gp,800001cc <test_8+0x18>
800001c8:	28301063          	bne	zero,gp,80000448 <fail>
800001cc:	fe20fee3          	bgeu	ra,sp,800001c8 <test_8+0x14>

800001d0 <test_9>:
800001d0:	00900193          	li	gp,9
800001d4:	ffe00093          	li	ra,-2
800001d8:	fff00113          	li	sp,-1
800001dc:	0020f463          	bgeu	ra,sp,800001e4 <test_9+0x14>
800001e0:	00301463          	bne	zero,gp,800001e8 <test_9+0x18>
800001e4:	26301263          	bne	zero,gp,80000448 <fail>
800001e8:	fe20fee3          	bgeu	ra,sp,800001e4 <test_9+0x14>

800001ec <test_10>:
800001ec:	00a00193          	li	gp,10
800001f0:	00000093          	li	ra,0
800001f4:	fff00113          	li	sp,-1
800001f8:	0020f463          	bgeu	ra,sp,80000200 <test_10+0x14>
800001fc:	00301463          	bne	zero,gp,80000204 <test_10+0x18>
80000200:	24301463          	bne	zero,gp,80000448 <fail>
80000204:	fe20fee3          	bgeu	ra,sp,80000200 <test_10+0x14>

80000208 <test_11>:
80000208:	00b00193          	li	gp,11
8000020c:	800000b7          	lui	ra,0x80000
80000210:	fff08093          	addi	ra,ra,-1 # 7fffffff <_end+0xffffdfff>
80000214:	80000137          	lui	sp,0x80000
80000218:	0020f463          	bgeu	ra,sp,80000220 <test_11+0x18>
8000021c:	00301463          	bne	zero,gp,80000224 <test_11+0x1c>
80000220:	22301463          	bne	zero,gp,80000448 <fail>
80000224:	fe20fee3          	bgeu	ra,sp,80000220 <test_11+0x18>

80000228 <test_12>:
80000228:	00c00193          	li	gp,12
8000022c:	00000213          	li	tp,0
80000230:	f00000b7          	lui	ra,0xf0000
80000234:	fff08093          	addi	ra,ra,-1 # efffffff <_end+0x6fffdfff>
80000238:	f0000137          	lui	sp,0xf0000
8000023c:	2020f663          	bgeu	ra,sp,80000448 <fail>
80000240:	00120213          	addi	tp,tp,1 # 1 <_start-0x7fffffff>
80000244:	00200293          	li	t0,2
80000248:	fe5214e3          	bne	tp,t0,80000230 <test_12+0x8>

8000024c <test_13>:
8000024c:	00d00193          	li	gp,13
80000250:	00000213          	li	tp,0
80000254:	f00000b7          	lui	ra,0xf0000
80000258:	fff08093          	addi	ra,ra,-1 # efffffff <_end+0x6fffdfff>
8000025c:	f0000137          	lui	sp,0xf0000
80000260:	00000013          	nop
80000264:	1e20f263          	bgeu	ra,sp,80000448 <fail>
80000268:	00120213          	addi	tp,tp,1 # 1 <_start-0x7fffffff>
8000026c:	00200293          	li	t0,2
80000270:	fe5212e3          	bne	tp,t0,80000254 <test_13+0x8>

80000274 <test_14>:
80000274:	00e00193          	li	gp,14
80000278:	00000213          	li	tp,0
8000027c:	f00000b7          	lui	ra,0xf0000
80000280:	fff08093          	addi	ra,ra,-1 # efffffff <_end+0x6fffdfff>
80000284:	f0000137          	lui	sp,0xf0000
80000288:	00000013          	nop
8000028c:	00000013          	nop
80000290:	1a20fc63          	bgeu	ra,sp,80000448 <fail>
80000294:	00120213          	addi	tp,tp,1 # 1 <_start-0x7fffffff>
80000298:	00200293          	li	t0,2
8000029c:	fe5210e3          	bne	tp,t0,8000027c <test_14+0x8>

800002a0 <test_15>:
800002a0:	00f00193          	li	gp,15
800002a4:	00000213          	li	tp,0
800002a8:	f00000b7          	lui	ra,0xf0000
800002ac:	fff08093          	addi	ra,ra,-1 # efffffff <_end+0x6fffdfff>
800002b0:	00000013          	nop
800002b4:	f0000137          	lui	sp,0xf0000
800002b8:	1820f863          	bgeu	ra,sp,80000448 <fail>
800002bc:	00120213          	addi	tp,tp,1 # 1 <_start-0x7fffffff>
800002c0:	00200293          	li	t0,2
800002c4:	fe5212e3          	bne	tp,t0,800002a8 <test_15+0x8>

800002c8 <test_16>:
800002c8:	01000193          	li	gp,16
800002cc:	00000213          	li	tp,0
800002d0:	f00000b7          	lui	ra,0xf0000
800002d4:	fff08093          	addi	ra,ra,-1 # efffffff <_end+0x6fffdfff>
800002d8:	00000013          	nop
800002dc:	f0000137          	lui	sp,0xf0000
800002e0:	00000013          	nop
800002e4:	1620f263          	bgeu	ra,sp,80000448 <fail>
800002e8:	00120213          	addi	tp,tp,1 # 1 <_start-0x7fffffff>
800002ec:	00200293          	li	t0,2
800002f0:	fe5210e3          	bne	tp,t0,800002d0 <test_16+0x8>

800002f4 <test_17>:
800002f4:	01100193          	li	gp,17
800002f8:	00000213          	li	tp,0
800002fc:	f00000b7          	lui	ra,0xf0000
80000300:	fff08093          	addi	ra,ra,-1 # efffffff <_end+0x6fffdfff>
80000304:	00000013          	nop
80000308:	00000013          	nop
8000030c:	f0000137          	lui	sp,0xf0000
80000310:	1220fc63          	bgeu	ra,sp,80000448 <fail>
80000314:	00120213          	addi	tp,tp,1 # 1 <_start-0x7fffffff>
80000318:	00200293          	li	t0,2
8000031c:	fe5210e3          	bne	tp,t0,800002fc <test_17+0x8>

80000320 <test_18>:
80000320:	01200193          	li	gp,18
80000324:	00000213          	li	tp,0
80000328:	f00000b7          	lui	ra,0xf0000
8000032c:	fff08093          	addi	ra,ra,-1 # efffffff <_end+0x6fffdfff>
80000330:	f0000137          	lui	sp,0xf0000
80000334:	1020fa63          	bgeu	ra,sp,80000448 <fail>
80000338:	00120213          	addi	tp,tp,1 # 1 <_start-0x7fffffff>
8000033c:	00200293          	li	t0,2
80000340:	fe5214e3          	bne	tp,t0,80000328 <test_18+0x8>

80000344 <test_19>:
80000344:	01300193          	li	gp,19
80000348:	00000213          	li	tp,0
8000034c:	f00000b7          	lui	ra,0xf0000
80000350:	fff08093          	addi	ra,ra,-1 # efffffff <_end+0x6fffdfff>
80000354:	f0000137          	lui	sp,0xf0000
80000358:	00000013          	nop
8000035c:	0e20f663          	bgeu	ra,sp,80000448 <fail>
80000360:	00120213          	addi	tp,tp,1 # 1 <_start-0x7fffffff>
80000364:	00200293          	li	t0,2
80000368:	fe5212e3          	bne	tp,t0,8000034c <test_19+0x8>

8000036c <test_20>:
8000036c:	01400193          	li	gp,20
80000370:	00000213          	li	tp,0
80000374:	f00000b7          	lui	ra,0xf0000
80000378:	fff08093          	addi	ra,ra,-1 # efffffff <_end+0x6fffdfff>
8000037c:	f0000137          	lui	sp,0xf0000
80000380:	00000013          	nop
80000384:	00000013          	nop
80000388:	0c20f063          	bgeu	ra,sp,80000448 <fail>
8000038c:	00120213          	addi	tp,tp,1 # 1 <_start-0x7fffffff>
80000390:	00200293          	li	t0,2
80000394:	fe5210e3          	bne	tp,t0,80000374 <test_20+0x8>

80000398 <test_21>:
80000398:	01500193          	li	gp,21
8000039c:	00000213          	li	tp,0
800003a0:	f00000b7          	lui	ra,0xf0000
800003a4:	fff08093          	addi	ra,ra,-1 # efffffff <_end+0x6fffdfff>
800003a8:	00000013          	nop
800003ac:	f0000137          	lui	sp,0xf0000
800003b0:	0820fc63          	bgeu	ra,sp,80000448 <fail>
800003b4:	00120213          	addi	tp,tp,1 # 1 <_start-0x7fffffff>
800003b8:	00200293          	li	t0,2
800003bc:	fe5212e3          	bne	tp,t0,800003a0 <test_21+0x8>

800003c0 <test_22>:
800003c0:	01600193          	li	gp,22
800003c4:	00000213          	li	tp,0
800003c8:	f00000b7          	lui	ra,0xf0000
800003cc:	fff08093          	addi	ra,ra,-1 # efffffff <_end+0x6fffdfff>
800003d0:	00000013          	nop
800003d4:	f0000137          	lui	sp,0xf0000
800003d8:	00000013          	nop
800003dc:	0620f663          	bgeu	ra,sp,80000448 <fail>
800003e0:	00120213          	addi	tp,tp,1 # 1 <_start-0x7fffffff>
800003e4:	00200293          	li	t0,2
800003e8:	fe5210e3          	bne	tp,t0,800003c8 <test_22+0x8>

800003ec <test_23>:
800003ec:	01700193          	li	gp,23
800003f0:	00000213          	li	tp,0
800003f4:	f00000b7          	lui	ra,0xf0000
800003f8:	fff08093          	addi	ra,ra,-1 # efffffff <_end+0x6fffdfff>
800003fc:	00000013          	nop
80000400:	00000013          	nop
80000404:	f0000137          	lui	sp,0xf0000
80000408:	0420f063          	bgeu	ra,sp,80000448 <fail>
8000040c:	00120213          	addi	tp,tp,1 # 1 <_start-0x7fffffff>
80000410:	00200293          	li	t0,2
80000414:	fe5210e3          	bne	tp,t0,800003f4 <test_23+0x8>

80000418 <test_24>:
80000418:	00100093          	li	ra,1
8000041c:	0000fa63          	bgeu	ra,zero,80000430 <test_24+0x18>
80000420:	00108093          	addi	ra,ra,1
80000424:	00108093          	addi	ra,ra,1
80000428:	00108093          	addi	ra,ra,1
8000042c:	00108093          	addi	ra,ra,1
80000430:	00108093          	addi	ra,ra,1
80000434:	00108093          	addi	ra,ra,1
80000438:	00300393          	li	t2,3
8000043c:	01800193          	li	gp,24
80000440:	00709463          	bne	ra,t2,80000448 <fail>
80000444:	00301c63          	bne	zero,gp,8000045c <pass>

80000448 <fail>:
80000448:	0ff0000f          	fence
8000044c:	00018063          	beqz	gp,8000044c <fail+0x4>
80000450:	00119193          	slli	gp,gp,0x1
80000454:	0011e193          	ori	gp,gp,1
80000458:	00000073          	ecall

8000045c <pass>:
8000045c:	0ff0000f          	fence
80000460:	00100193          	li	gp,1
80000464:	00000073          	ecall
80000468:	c0001073          	unimp
8000046c:	0000                	unimp
8000046e:	0000                	unimp
80000470:	0000                	unimp
80000472:	0000                	unimp
80000474:	0000                	unimp
80000476:	0000                	unimp
80000478:	0000                	unimp
8000047a:	0000                	unimp
