
rv32ui-p-sb:     file format elf32-littleriscv


Disassembly of section .text.init:

80000000 <_start>:
80000000:	0480006f          	j	80000048 <reset_vector>

80000004 <trap_vector>:
80000004:	34202f73          	csrr	t5,mcause
80000008:	00800f93          	li	t6,8
8000000c:	03ff0863          	beq	t5,t6,8000003c <write_tohost>
80000010:	00900f93          	li	t6,9
80000014:	03ff0463          	beq	t5,t6,8000003c <write_tohost>
80000018:	00b00f93          	li	t6,11
8000001c:	03ff0063          	beq	t5,t6,8000003c <write_tohost>
80000020:	00000f13          	li	t5,0
80000024:	000f0463          	beqz	t5,8000002c <trap_vector+0x28>
80000028:	000f0067          	jr	t5
8000002c:	34202f73          	csrr	t5,mcause
80000030:	000f5463          	bgez	t5,80000038 <handle_exception>
80000034:	0040006f          	j	80000038 <handle_exception>

80000038 <handle_exception>:
80000038:	5391e193          	ori	gp,gp,1337

8000003c <write_tohost>:
8000003c:	00001f17          	auipc	t5,0x1
80000040:	fc3f2223          	sw	gp,-60(t5) # 80001000 <tohost>
80000044:	ff9ff06f          	j	8000003c <write_tohost>

80000048 <reset_vector>:
80000048:	f1402573          	csrr	a0,mhartid
8000004c:	00051063          	bnez	a0,8000004c <reset_vector+0x4>
80000050:	00000297          	auipc	t0,0x0
80000054:	01028293          	addi	t0,t0,16 # 80000060 <reset_vector+0x18>
80000058:	30529073          	csrw	mtvec,t0
8000005c:	18005073          	csrwi	satp,0
80000060:	00000297          	auipc	t0,0x0
80000064:	01c28293          	addi	t0,t0,28 # 8000007c <reset_vector+0x34>
80000068:	30529073          	csrw	mtvec,t0
8000006c:	fff00293          	li	t0,-1
80000070:	3b029073          	csrw	pmpaddr0,t0
80000074:	01f00293          	li	t0,31
80000078:	3a029073          	csrw	pmpcfg0,t0
8000007c:	00000297          	auipc	t0,0x0
80000080:	01828293          	addi	t0,t0,24 # 80000094 <reset_vector+0x4c>
80000084:	30529073          	csrw	mtvec,t0
80000088:	30205073          	csrwi	medeleg,0
8000008c:	30305073          	csrwi	mideleg,0
80000090:	30405073          	csrwi	mie,0
80000094:	00000193          	li	gp,0
80000098:	00000297          	auipc	t0,0x0
8000009c:	f6c28293          	addi	t0,t0,-148 # 80000004 <trap_vector>
800000a0:	30529073          	csrw	mtvec,t0
800000a4:	00100513          	li	a0,1
800000a8:	01f51513          	slli	a0,a0,0x1f
800000ac:	00054863          	bltz	a0,800000bc <reset_vector+0x74>
800000b0:	0ff0000f          	fence
800000b4:	00100193          	li	gp,1
800000b8:	00000073          	ecall
800000bc:	00000293          	li	t0,0
800000c0:	00028e63          	beqz	t0,800000dc <reset_vector+0x94>
800000c4:	10529073          	csrw	stvec,t0
800000c8:	0000b2b7          	lui	t0,0xb
800000cc:	10928293          	addi	t0,t0,265 # b109 <_start-0x7fff4ef7>
800000d0:	30229073          	csrw	medeleg,t0
800000d4:	30202373          	csrr	t1,medeleg
800000d8:	f66290e3          	bne	t0,t1,80000038 <handle_exception>
800000dc:	30005073          	csrwi	mstatus,0
800000e0:	00000297          	auipc	t0,0x0
800000e4:	01428293          	addi	t0,t0,20 # 800000f4 <test_2>
800000e8:	34129073          	csrw	mepc,t0
800000ec:	f1402573          	csrr	a0,mhartid
800000f0:	30200073          	mret

800000f4 <test_2>:
800000f4:	00002097          	auipc	ra,0x2
800000f8:	f0c08093          	addi	ra,ra,-244 # 80002000 <begin_signature>
800000fc:	faa00113          	li	sp,-86
80000100:	00208023          	sb	sp,0(ra)
80000104:	00008703          	lb	a4,0(ra)
80000108:	faa00393          	li	t2,-86
8000010c:	00200193          	li	gp,2
80000110:	3c771c63          	bne	a4,t2,800004e8 <fail>

80000114 <test_3>:
80000114:	00002097          	auipc	ra,0x2
80000118:	eec08093          	addi	ra,ra,-276 # 80002000 <begin_signature>
8000011c:	00000113          	li	sp,0
80000120:	002080a3          	sb	sp,1(ra)
80000124:	00108703          	lb	a4,1(ra)
80000128:	00000393          	li	t2,0
8000012c:	00300193          	li	gp,3
80000130:	3a771c63          	bne	a4,t2,800004e8 <fail>

80000134 <test_4>:
80000134:	00002097          	auipc	ra,0x2
80000138:	ecc08093          	addi	ra,ra,-308 # 80002000 <begin_signature>
8000013c:	fffff137          	lui	sp,0xfffff
80000140:	fa010113          	addi	sp,sp,-96 # ffffefa0 <_end+0x7fffcf90>
80000144:	00208123          	sb	sp,2(ra)
80000148:	00209703          	lh	a4,2(ra)
8000014c:	fffff3b7          	lui	t2,0xfffff
80000150:	fa038393          	addi	t2,t2,-96 # ffffefa0 <_end+0x7fffcf90>
80000154:	00400193          	li	gp,4
80000158:	38771863          	bne	a4,t2,800004e8 <fail>

8000015c <test_5>:
8000015c:	00002097          	auipc	ra,0x2
80000160:	ea408093          	addi	ra,ra,-348 # 80002000 <begin_signature>
80000164:	00a00113          	li	sp,10
80000168:	002081a3          	sb	sp,3(ra)
8000016c:	00308703          	lb	a4,3(ra)
80000170:	00a00393          	li	t2,10
80000174:	00500193          	li	gp,5
80000178:	36771863          	bne	a4,t2,800004e8 <fail>

8000017c <test_6>:
8000017c:	00002097          	auipc	ra,0x2
80000180:	e8b08093          	addi	ra,ra,-373 # 80002007 <tdat8>
80000184:	faa00113          	li	sp,-86
80000188:	fe208ea3          	sb	sp,-3(ra)
8000018c:	ffd08703          	lb	a4,-3(ra)
80000190:	faa00393          	li	t2,-86
80000194:	00600193          	li	gp,6
80000198:	34771863          	bne	a4,t2,800004e8 <fail>

8000019c <test_7>:
8000019c:	00002097          	auipc	ra,0x2
800001a0:	e6b08093          	addi	ra,ra,-405 # 80002007 <tdat8>
800001a4:	00000113          	li	sp,0
800001a8:	fe208f23          	sb	sp,-2(ra)
800001ac:	ffe08703          	lb	a4,-2(ra)
800001b0:	00000393          	li	t2,0
800001b4:	00700193          	li	gp,7
800001b8:	32771863          	bne	a4,t2,800004e8 <fail>

800001bc <test_8>:
800001bc:	00002097          	auipc	ra,0x2
800001c0:	e4b08093          	addi	ra,ra,-437 # 80002007 <tdat8>
800001c4:	fa000113          	li	sp,-96
800001c8:	fe208fa3          	sb	sp,-1(ra)
800001cc:	fff08703          	lb	a4,-1(ra)
800001d0:	fa000393          	li	t2,-96
800001d4:	00800193          	li	gp,8
800001d8:	30771863          	bne	a4,t2,800004e8 <fail>

800001dc <test_9>:
800001dc:	00002097          	auipc	ra,0x2
800001e0:	e2b08093          	addi	ra,ra,-469 # 80002007 <tdat8>
800001e4:	00a00113          	li	sp,10
800001e8:	00208023          	sb	sp,0(ra)
800001ec:	00008703          	lb	a4,0(ra)
800001f0:	00a00393          	li	t2,10
800001f4:	00900193          	li	gp,9
800001f8:	2e771863          	bne	a4,t2,800004e8 <fail>

800001fc <test_10>:
800001fc:	00002097          	auipc	ra,0x2
80000200:	e0c08093          	addi	ra,ra,-500 # 80002008 <tdat9>
80000204:	12345137          	lui	sp,0x12345
80000208:	67810113          	addi	sp,sp,1656 # 12345678 <_start-0x6dcba988>
8000020c:	fe008213          	addi	tp,ra,-32
80000210:	02220023          	sb	sp,32(tp) # 20 <_start-0x7fffffe0>
80000214:	00008283          	lb	t0,0(ra)
80000218:	07800393          	li	t2,120
8000021c:	00a00193          	li	gp,10
80000220:	2c729463          	bne	t0,t2,800004e8 <fail>

80000224 <test_11>:
80000224:	00002097          	auipc	ra,0x2
80000228:	de408093          	addi	ra,ra,-540 # 80002008 <tdat9>
8000022c:	00003137          	lui	sp,0x3
80000230:	09810113          	addi	sp,sp,152 # 3098 <_start-0x7fffcf68>
80000234:	ffa08093          	addi	ra,ra,-6
80000238:	002083a3          	sb	sp,7(ra)
8000023c:	00002217          	auipc	tp,0x2
80000240:	dcd20213          	addi	tp,tp,-563 # 80002009 <tdat10>
80000244:	00020283          	lb	t0,0(tp) # 0 <_start-0x80000000>
80000248:	f9800393          	li	t2,-104
8000024c:	00b00193          	li	gp,11
80000250:	28729c63          	bne	t0,t2,800004e8 <fail>

80000254 <test_12>:
80000254:	00c00193          	li	gp,12
80000258:	00000213          	li	tp,0
8000025c:	fdd00093          	li	ra,-35
80000260:	00002117          	auipc	sp,0x2
80000264:	da010113          	addi	sp,sp,-608 # 80002000 <begin_signature>
80000268:	00110023          	sb	ra,0(sp)
8000026c:	00010703          	lb	a4,0(sp)
80000270:	fdd00393          	li	t2,-35
80000274:	26771a63          	bne	a4,t2,800004e8 <fail>
80000278:	00120213          	addi	tp,tp,1 # 1 <_start-0x7fffffff>
8000027c:	00200293          	li	t0,2
80000280:	fc521ee3          	bne	tp,t0,8000025c <test_12+0x8>

80000284 <test_13>:
80000284:	00d00193          	li	gp,13
80000288:	00000213          	li	tp,0
8000028c:	fcd00093          	li	ra,-51
80000290:	00002117          	auipc	sp,0x2
80000294:	d7010113          	addi	sp,sp,-656 # 80002000 <begin_signature>
80000298:	00000013          	nop
8000029c:	001100a3          	sb	ra,1(sp)
800002a0:	00110703          	lb	a4,1(sp)
800002a4:	fcd00393          	li	t2,-51
800002a8:	24771063          	bne	a4,t2,800004e8 <fail>
800002ac:	00120213          	addi	tp,tp,1 # 1 <_start-0x7fffffff>
800002b0:	00200293          	li	t0,2
800002b4:	fc521ce3          	bne	tp,t0,8000028c <test_13+0x8>

800002b8 <test_14>:
800002b8:	00e00193          	li	gp,14
800002bc:	00000213          	li	tp,0
800002c0:	fcc00093          	li	ra,-52
800002c4:	00002117          	auipc	sp,0x2
800002c8:	d3c10113          	addi	sp,sp,-708 # 80002000 <begin_signature>
800002cc:	00000013          	nop
800002d0:	00000013          	nop
800002d4:	00110123          	sb	ra,2(sp)
800002d8:	00210703          	lb	a4,2(sp)
800002dc:	fcc00393          	li	t2,-52
800002e0:	20771463          	bne	a4,t2,800004e8 <fail>
800002e4:	00120213          	addi	tp,tp,1 # 1 <_start-0x7fffffff>
800002e8:	00200293          	li	t0,2
800002ec:	fc521ae3          	bne	tp,t0,800002c0 <test_14+0x8>

800002f0 <test_15>:
800002f0:	00f00193          	li	gp,15
800002f4:	00000213          	li	tp,0
800002f8:	fbc00093          	li	ra,-68
800002fc:	00000013          	nop
80000300:	00002117          	auipc	sp,0x2
80000304:	d0010113          	addi	sp,sp,-768 # 80002000 <begin_signature>
80000308:	001101a3          	sb	ra,3(sp)
8000030c:	00310703          	lb	a4,3(sp)
80000310:	fbc00393          	li	t2,-68
80000314:	1c771a63          	bne	a4,t2,800004e8 <fail>
80000318:	00120213          	addi	tp,tp,1 # 1 <_start-0x7fffffff>
8000031c:	00200293          	li	t0,2
80000320:	fc521ce3          	bne	tp,t0,800002f8 <test_15+0x8>

80000324 <test_16>:
80000324:	01000193          	li	gp,16
80000328:	00000213          	li	tp,0
8000032c:	fbb00093          	li	ra,-69
80000330:	00000013          	nop
80000334:	00002117          	auipc	sp,0x2
80000338:	ccc10113          	addi	sp,sp,-820 # 80002000 <begin_signature>
8000033c:	00000013          	nop
80000340:	00110223          	sb	ra,4(sp)
80000344:	00410703          	lb	a4,4(sp)
80000348:	fbb00393          	li	t2,-69
8000034c:	18771e63          	bne	a4,t2,800004e8 <fail>
80000350:	00120213          	addi	tp,tp,1 # 1 <_start-0x7fffffff>
80000354:	00200293          	li	t0,2
80000358:	fc521ae3          	bne	tp,t0,8000032c <test_16+0x8>

8000035c <test_17>:
8000035c:	01100193          	li	gp,17
80000360:	00000213          	li	tp,0
80000364:	fab00093          	li	ra,-85
80000368:	00000013          	nop
8000036c:	00000013          	nop
80000370:	00002117          	auipc	sp,0x2
80000374:	c9010113          	addi	sp,sp,-880 # 80002000 <begin_signature>
80000378:	001102a3          	sb	ra,5(sp)
8000037c:	00510703          	lb	a4,5(sp)
80000380:	fab00393          	li	t2,-85
80000384:	16771263          	bne	a4,t2,800004e8 <fail>
80000388:	00120213          	addi	tp,tp,1 # 1 <_start-0x7fffffff>
8000038c:	00200293          	li	t0,2
80000390:	fc521ae3          	bne	tp,t0,80000364 <test_17+0x8>

80000394 <test_18>:
80000394:	01200193          	li	gp,18
80000398:	00000213          	li	tp,0
8000039c:	00002117          	auipc	sp,0x2
800003a0:	c6410113          	addi	sp,sp,-924 # 80002000 <begin_signature>
800003a4:	03300093          	li	ra,51
800003a8:	00110023          	sb	ra,0(sp)
800003ac:	00010703          	lb	a4,0(sp)
800003b0:	03300393          	li	t2,51
800003b4:	12771a63          	bne	a4,t2,800004e8 <fail>
800003b8:	00120213          	addi	tp,tp,1 # 1 <_start-0x7fffffff>
800003bc:	00200293          	li	t0,2
800003c0:	fc521ee3          	bne	tp,t0,8000039c <test_18+0x8>

800003c4 <test_19>:
800003c4:	01300193          	li	gp,19
800003c8:	00000213          	li	tp,0
800003cc:	00002117          	auipc	sp,0x2
800003d0:	c3410113          	addi	sp,sp,-972 # 80002000 <begin_signature>
800003d4:	02300093          	li	ra,35
800003d8:	00000013          	nop
800003dc:	001100a3          	sb	ra,1(sp)
800003e0:	00110703          	lb	a4,1(sp)
800003e4:	02300393          	li	t2,35
800003e8:	10771063          	bne	a4,t2,800004e8 <fail>
800003ec:	00120213          	addi	tp,tp,1 # 1 <_start-0x7fffffff>
800003f0:	00200293          	li	t0,2
800003f4:	fc521ce3          	bne	tp,t0,800003cc <test_19+0x8>

800003f8 <test_20>:
800003f8:	01400193          	li	gp,20
800003fc:	00000213          	li	tp,0
80000400:	00002117          	auipc	sp,0x2
80000404:	c0010113          	addi	sp,sp,-1024 # 80002000 <begin_signature>
80000408:	02200093          	li	ra,34
8000040c:	00000013          	nop
80000410:	00000013          	nop
80000414:	00110123          	sb	ra,2(sp)
80000418:	00210703          	lb	a4,2(sp)
8000041c:	02200393          	li	t2,34
80000420:	0c771463          	bne	a4,t2,800004e8 <fail>
80000424:	00120213          	addi	tp,tp,1 # 1 <_start-0x7fffffff>
80000428:	00200293          	li	t0,2
8000042c:	fc521ae3          	bne	tp,t0,80000400 <test_20+0x8>

80000430 <test_21>:
80000430:	01500193          	li	gp,21
80000434:	00000213          	li	tp,0
80000438:	00002117          	auipc	sp,0x2
8000043c:	bc810113          	addi	sp,sp,-1080 # 80002000 <begin_signature>
80000440:	00000013          	nop
80000444:	01200093          	li	ra,18
80000448:	001101a3          	sb	ra,3(sp)
8000044c:	00310703          	lb	a4,3(sp)
80000450:	01200393          	li	t2,18
80000454:	08771a63          	bne	a4,t2,800004e8 <fail>
80000458:	00120213          	addi	tp,tp,1 # 1 <_start-0x7fffffff>
8000045c:	00200293          	li	t0,2
80000460:	fc521ce3          	bne	tp,t0,80000438 <test_21+0x8>

80000464 <test_22>:
80000464:	01600193          	li	gp,22
80000468:	00000213          	li	tp,0
8000046c:	00002117          	auipc	sp,0x2
80000470:	b9410113          	addi	sp,sp,-1132 # 80002000 <begin_signature>
80000474:	00000013          	nop
80000478:	01100093          	li	ra,17
8000047c:	00000013          	nop
80000480:	00110223          	sb	ra,4(sp)
80000484:	00410703          	lb	a4,4(sp)
80000488:	01100393          	li	t2,17
8000048c:	04771e63          	bne	a4,t2,800004e8 <fail>
80000490:	00120213          	addi	tp,tp,1 # 1 <_start-0x7fffffff>
80000494:	00200293          	li	t0,2
80000498:	fc521ae3          	bne	tp,t0,8000046c <test_22+0x8>

8000049c <test_23>:
8000049c:	01700193          	li	gp,23
800004a0:	00000213          	li	tp,0
800004a4:	00002117          	auipc	sp,0x2
800004a8:	b5c10113          	addi	sp,sp,-1188 # 80002000 <begin_signature>
800004ac:	00000013          	nop
800004b0:	00000013          	nop
800004b4:	00100093          	li	ra,1
800004b8:	001102a3          	sb	ra,5(sp)
800004bc:	00510703          	lb	a4,5(sp)
800004c0:	00100393          	li	t2,1
800004c4:	02771263          	bne	a4,t2,800004e8 <fail>
800004c8:	00120213          	addi	tp,tp,1 # 1 <_start-0x7fffffff>
800004cc:	00200293          	li	t0,2
800004d0:	fc521ae3          	bne	tp,t0,800004a4 <test_23+0x8>
800004d4:	0ef00513          	li	a0,239
800004d8:	00002597          	auipc	a1,0x2
800004dc:	b2858593          	addi	a1,a1,-1240 # 80002000 <begin_signature>
800004e0:	00a581a3          	sb	a0,3(a1)
800004e4:	00301c63          	bne	zero,gp,800004fc <pass>

800004e8 <fail>:
800004e8:	0ff0000f          	fence
800004ec:	00018063          	beqz	gp,800004ec <fail+0x4>
800004f0:	00119193          	slli	gp,gp,0x1
800004f4:	0011e193          	ori	gp,gp,1
800004f8:	00000073          	ecall

800004fc <pass>:
800004fc:	0ff0000f          	fence
80000500:	00100193          	li	gp,1
80000504:	00000073          	ecall
80000508:	c0001073          	unimp
8000050c:	0000                	unimp
8000050e:	0000                	unimp
80000510:	0000                	unimp
80000512:	0000                	unimp
80000514:	0000                	unimp
80000516:	0000                	unimp
80000518:	0000                	unimp
8000051a:	0000                	unimp
8000051c:	0000                	unimp
8000051e:	0000                	unimp
80000520:	0000                	unimp
80000522:	0000                	unimp
80000524:	0000                	unimp
80000526:	0000                	unimp
80000528:	0000                	unimp
8000052a:	0000                	unimp
8000052c:	0000                	unimp
8000052e:	0000                	unimp
80000530:	0000                	unimp
80000532:	0000                	unimp
80000534:	0000                	unimp
80000536:	0000                	unimp
80000538:	0000                	unimp
8000053a:	0000                	unimp

Disassembly of section .data:

80002000 <begin_signature>:
80002000:	          	jal	t6,800006fe <pass+0x202>

80002001 <tdat2>:
80002001:	          	jal	t6,800006ff <pass+0x203>

80002002 <tdat3>:
80002002:	          	jal	t6,80000700 <pass+0x204>

80002003 <tdat4>:
80002003:	          	jal	t6,80000701 <pass+0x205>

80002004 <tdat5>:
80002004:	          	jal	t6,80000702 <pass+0x206>

80002005 <tdat6>:
80002005:	          	jal	t6,80000703 <pass+0x207>

80002006 <tdat7>:
80002006:	          	jal	t6,80000704 <pass+0x208>

80002007 <tdat8>:
80002007:	          	jal	t6,80100015 <_end+0xfe005>

80002008 <tdat9>:
80002008:	          	jal	t6,80010008 <_end+0xdff8>

80002009 <tdat10>:
80002009:	000000ef          	jal	ra,80002009 <tdat10>
8000200d:	0000                	unimp
8000200f:	00              	Address 0x000000008000200f is out of bounds.

