
rv32ui-p-fence_i:     file format elf32-littleriscv


Disassembly of section .text.init:

80000000 <_start>:
80000000:	0480006f          	j	80000048 <reset_vector>

80000004 <trap_vector>:
80000004:	34202f73          	csrr	t5,mcause
80000008:	00800f93          	li	t6,8
8000000c:	03ff0863          	beq	t5,t6,8000003c <write_tohost>
80000010:	00900f93          	li	t6,9
80000014:	03ff0463          	beq	t5,t6,8000003c <write_tohost>
80000018:	00b00f93          	li	t6,11
8000001c:	03ff0063          	beq	t5,t6,8000003c <write_tohost>
80000020:	00000f13          	li	t5,0
80000024:	000f0463          	beqz	t5,8000002c <trap_vector+0x28>
80000028:	000f0067          	jr	t5
8000002c:	34202f73          	csrr	t5,mcause
80000030:	000f5463          	bgez	t5,80000038 <handle_exception>
80000034:	0040006f          	j	80000038 <handle_exception>

80000038 <handle_exception>:
80000038:	5391e193          	ori	gp,gp,1337

8000003c <write_tohost>:
8000003c:	00001f17          	auipc	t5,0x1
80000040:	fc3f2223          	sw	gp,-60(t5) # 80001000 <tohost>
80000044:	ff9ff06f          	j	8000003c <write_tohost>

80000048 <reset_vector>:
80000048:	f1402573          	csrr	a0,mhartid
8000004c:	00051063          	bnez	a0,8000004c <reset_vector+0x4>
80000050:	00000297          	auipc	t0,0x0
80000054:	01028293          	addi	t0,t0,16 # 80000060 <reset_vector+0x18>
80000058:	30529073          	csrw	mtvec,t0
8000005c:	18005073          	csrwi	satp,0
80000060:	00000297          	auipc	t0,0x0
80000064:	01c28293          	addi	t0,t0,28 # 8000007c <reset_vector+0x34>
80000068:	30529073          	csrw	mtvec,t0
8000006c:	fff00293          	li	t0,-1
80000070:	3b029073          	csrw	pmpaddr0,t0
80000074:	01f00293          	li	t0,31
80000078:	3a029073          	csrw	pmpcfg0,t0
8000007c:	00000297          	auipc	t0,0x0
80000080:	01828293          	addi	t0,t0,24 # 80000094 <reset_vector+0x4c>
80000084:	30529073          	csrw	mtvec,t0
80000088:	30205073          	csrwi	medeleg,0
8000008c:	30305073          	csrwi	mideleg,0
80000090:	30405073          	csrwi	mie,0
80000094:	00000193          	li	gp,0
80000098:	00000297          	auipc	t0,0x0
8000009c:	f6c28293          	addi	t0,t0,-148 # 80000004 <trap_vector>
800000a0:	30529073          	csrw	mtvec,t0
800000a4:	00100513          	li	a0,1
800000a8:	01f51513          	slli	a0,a0,0x1f
800000ac:	00054863          	bltz	a0,800000bc <reset_vector+0x74>
800000b0:	0ff0000f          	fence
800000b4:	00100193          	li	gp,1
800000b8:	00000073          	ecall
800000bc:	00000293          	li	t0,0
800000c0:	00028e63          	beqz	t0,800000dc <reset_vector+0x94>
800000c4:	10529073          	csrw	stvec,t0
800000c8:	0000b2b7          	lui	t0,0xb
800000cc:	10928293          	addi	t0,t0,265 # b109 <_start-0x7fff4ef7>
800000d0:	30229073          	csrw	medeleg,t0
800000d4:	30202373          	csrr	t1,medeleg
800000d8:	f66290e3          	bne	t0,t1,80000038 <handle_exception>
800000dc:	30005073          	csrwi	mstatus,0
800000e0:	00000297          	auipc	t0,0x0
800000e4:	01428293          	addi	t0,t0,20 # 800000f4 <reset_vector+0xac>
800000e8:	34129073          	csrw	mepc,t0
800000ec:	f1402573          	csrr	a0,mhartid
800000f0:	30200073          	mret
800000f4:	06f00693          	li	a3,111
800000f8:	00002517          	auipc	a0,0x2
800000fc:	f0851503          	lh	a0,-248(a0) # 80002000 <begin_signature>
80000100:	00002597          	auipc	a1,0x2
80000104:	f0259583          	lh	a1,-254(a1) # 80002002 <begin_signature+0x2>
80000108:	00000013          	nop
8000010c:	00000013          	nop
80000110:	00000013          	nop
80000114:	00000013          	nop
80000118:	00000013          	nop
8000011c:	00000013          	nop
80000120:	00000013          	nop
80000124:	00000013          	nop
80000128:	00000013          	nop
8000012c:	00000013          	nop
80000130:	00000013          	nop
80000134:	00000013          	nop
80000138:	00000013          	nop
8000013c:	00000013          	nop
80000140:	00002297          	auipc	t0,0x2
80000144:	eca29223          	sh	a0,-316(t0) # 80002004 <begin_signature+0x4>
80000148:	00002297          	auipc	t0,0x2
8000014c:	eab29f23          	sh	a1,-322(t0) # 80002006 <begin_signature+0x6>
80000150:	0000100f          	fence.i
80000154:	00002797          	auipc	a5,0x2
80000158:	eb078793          	addi	a5,a5,-336 # 80002004 <begin_signature+0x4>
8000015c:	00078867          	jalr	a6,a5

80000160 <test_2>:
80000160:	00000013          	nop
80000164:	1bc00393          	li	t2,444
80000168:	00200193          	li	gp,2
8000016c:	06769a63          	bne	a3,t2,800001e0 <fail>
80000170:	06400713          	li	a4,100
80000174:	fff70713          	addi	a4,a4,-1
80000178:	fe071ee3          	bnez	a4,80000174 <test_2+0x14>
8000017c:	00002297          	auipc	t0,0x2
80000180:	e8a29823          	sh	a0,-368(t0) # 8000200c <begin_signature+0xc>
80000184:	00002297          	auipc	t0,0x2
80000188:	e8b29523          	sh	a1,-374(t0) # 8000200e <begin_signature+0xe>
8000018c:	0000100f          	fence.i
80000190:	00000013          	nop
80000194:	00000013          	nop
80000198:	00000013          	nop
8000019c:	00000013          	nop
800001a0:	00000013          	nop
800001a4:	00000013          	nop
800001a8:	00000013          	nop
800001ac:	00000013          	nop
800001b0:	00000013          	nop
800001b4:	00000013          	nop
800001b8:	00000013          	nop
800001bc:	00000013          	nop
800001c0:	00002797          	auipc	a5,0x2
800001c4:	e4c78793          	addi	a5,a5,-436 # 8000200c <begin_signature+0xc>
800001c8:	00078867          	jalr	a6,a5

800001cc <test_3>:
800001cc:	00000013          	nop
800001d0:	30900393          	li	t2,777
800001d4:	00300193          	li	gp,3
800001d8:	00769463          	bne	a3,t2,800001e0 <fail>
800001dc:	00301c63          	bne	zero,gp,800001f4 <pass>

800001e0 <fail>:
800001e0:	0ff0000f          	fence
800001e4:	00018063          	beqz	gp,800001e4 <fail+0x4>
800001e8:	00119193          	slli	gp,gp,0x1
800001ec:	0011e193          	ori	gp,gp,1
800001f0:	00000073          	ecall

800001f4 <pass>:
800001f4:	0ff0000f          	fence
800001f8:	00100193          	li	gp,1
800001fc:	00000073          	ecall
80000200:	c0001073          	unimp
80000204:	0000                	unimp
80000206:	0000                	unimp
80000208:	0000                	unimp
8000020a:	0000                	unimp
8000020c:	0000                	unimp
8000020e:	0000                	unimp
80000210:	0000                	unimp
80000212:	0000                	unimp
80000214:	0000                	unimp
80000216:	0000                	unimp
80000218:	0000                	unimp
8000021a:	0000                	unimp
8000021c:	0000                	unimp
8000021e:	0000                	unimp
80000220:	0000                	unimp
80000222:	0000                	unimp
80000224:	0000                	unimp
80000226:	0000                	unimp
80000228:	0000                	unimp
8000022a:	0000                	unimp

Disassembly of section .data:

80002000 <begin_signature>:
80002000:	14d68693          	addi	a3,a3,333
80002004:	0de68693          	addi	a3,a3,222
80002008:	000807e7          	jalr	a5,a6
8000200c:	22b68693          	addi	a3,a3,555
80002010:	000807e7          	jalr	a5,a6
80002014:	0000                	unimp
80002016:	0000                	unimp
80002018:	0000                	unimp
8000201a:	0000                	unimp
8000201c:	0000                	unimp
8000201e:	0000                	unimp
