
rv32ui-p-slti:     file format elf32-littleriscv


Disassembly of section .text.init:

80000000 <_start>:
80000000:	0480006f          	j	80000048 <reset_vector>

80000004 <trap_vector>:
80000004:	34202f73          	csrr	t5,mcause
80000008:	00800f93          	li	t6,8
8000000c:	03ff0863          	beq	t5,t6,8000003c <write_tohost>
80000010:	00900f93          	li	t6,9
80000014:	03ff0463          	beq	t5,t6,8000003c <write_tohost>
80000018:	00b00f93          	li	t6,11
8000001c:	03ff0063          	beq	t5,t6,8000003c <write_tohost>
80000020:	00000f13          	li	t5,0
80000024:	000f0463          	beqz	t5,8000002c <trap_vector+0x28>
80000028:	000f0067          	jr	t5
8000002c:	34202f73          	csrr	t5,mcause
80000030:	000f5463          	bgez	t5,80000038 <handle_exception>
80000034:	0040006f          	j	80000038 <handle_exception>

80000038 <handle_exception>:
80000038:	5391e193          	ori	gp,gp,1337

8000003c <write_tohost>:
8000003c:	00001f17          	auipc	t5,0x1
80000040:	fc3f2223          	sw	gp,-60(t5) # 80001000 <tohost>
80000044:	ff9ff06f          	j	8000003c <write_tohost>

80000048 <reset_vector>:
80000048:	f1402573          	csrr	a0,mhartid
8000004c:	00051063          	bnez	a0,8000004c <reset_vector+0x4>
80000050:	00000297          	auipc	t0,0x0
80000054:	01028293          	addi	t0,t0,16 # 80000060 <reset_vector+0x18>
80000058:	30529073          	csrw	mtvec,t0
8000005c:	18005073          	csrwi	satp,0
80000060:	00000297          	auipc	t0,0x0
80000064:	01c28293          	addi	t0,t0,28 # 8000007c <reset_vector+0x34>
80000068:	30529073          	csrw	mtvec,t0
8000006c:	fff00293          	li	t0,-1
80000070:	3b029073          	csrw	pmpaddr0,t0
80000074:	01f00293          	li	t0,31
80000078:	3a029073          	csrw	pmpcfg0,t0
8000007c:	00000297          	auipc	t0,0x0
80000080:	01828293          	addi	t0,t0,24 # 80000094 <reset_vector+0x4c>
80000084:	30529073          	csrw	mtvec,t0
80000088:	30205073          	csrwi	medeleg,0
8000008c:	30305073          	csrwi	mideleg,0
80000090:	30405073          	csrwi	mie,0
80000094:	00000193          	li	gp,0
80000098:	00000297          	auipc	t0,0x0
8000009c:	f6c28293          	addi	t0,t0,-148 # 80000004 <trap_vector>
800000a0:	30529073          	csrw	mtvec,t0
800000a4:	00100513          	li	a0,1
800000a8:	01f51513          	slli	a0,a0,0x1f
800000ac:	00054863          	bltz	a0,800000bc <reset_vector+0x74>
800000b0:	0ff0000f          	fence
800000b4:	00100193          	li	gp,1
800000b8:	00000073          	ecall
800000bc:	00000293          	li	t0,0
800000c0:	00028e63          	beqz	t0,800000dc <reset_vector+0x94>
800000c4:	10529073          	csrw	stvec,t0
800000c8:	0000b2b7          	lui	t0,0xb
800000cc:	10928293          	addi	t0,t0,265 # b109 <_start-0x7fff4ef7>
800000d0:	30229073          	csrw	medeleg,t0
800000d4:	30202373          	csrr	t1,medeleg
800000d8:	f66290e3          	bne	t0,t1,80000038 <handle_exception>
800000dc:	30005073          	csrwi	mstatus,0
800000e0:	00000297          	auipc	t0,0x0
800000e4:	01428293          	addi	t0,t0,20 # 800000f4 <test_2>
800000e8:	34129073          	csrw	mepc,t0
800000ec:	f1402573          	csrr	a0,mhartid
800000f0:	30200073          	mret

800000f4 <test_2>:
800000f4:	00000093          	li	ra,0
800000f8:	0000a713          	slti	a4,ra,0
800000fc:	00000393          	li	t2,0
80000100:	00200193          	li	gp,2
80000104:	26771263          	bne	a4,t2,80000368 <fail>

80000108 <test_3>:
80000108:	00100093          	li	ra,1
8000010c:	0010a713          	slti	a4,ra,1
80000110:	00000393          	li	t2,0
80000114:	00300193          	li	gp,3
80000118:	24771863          	bne	a4,t2,80000368 <fail>

8000011c <test_4>:
8000011c:	00300093          	li	ra,3
80000120:	0070a713          	slti	a4,ra,7
80000124:	00100393          	li	t2,1
80000128:	00400193          	li	gp,4
8000012c:	22771e63          	bne	a4,t2,80000368 <fail>

80000130 <test_5>:
80000130:	00700093          	li	ra,7
80000134:	0030a713          	slti	a4,ra,3
80000138:	00000393          	li	t2,0
8000013c:	00500193          	li	gp,5
80000140:	22771463          	bne	a4,t2,80000368 <fail>

80000144 <test_6>:
80000144:	00000093          	li	ra,0
80000148:	8000a713          	slti	a4,ra,-2048
8000014c:	00000393          	li	t2,0
80000150:	00600193          	li	gp,6
80000154:	20771a63          	bne	a4,t2,80000368 <fail>

80000158 <test_7>:
80000158:	800000b7          	lui	ra,0x80000
8000015c:	0000a713          	slti	a4,ra,0
80000160:	00100393          	li	t2,1
80000164:	00700193          	li	gp,7
80000168:	20771063          	bne	a4,t2,80000368 <fail>

8000016c <test_8>:
8000016c:	800000b7          	lui	ra,0x80000
80000170:	8000a713          	slti	a4,ra,-2048
80000174:	00100393          	li	t2,1
80000178:	00800193          	li	gp,8
8000017c:	1e771663          	bne	a4,t2,80000368 <fail>

80000180 <test_9>:
80000180:	00000093          	li	ra,0
80000184:	7ff0a713          	slti	a4,ra,2047
80000188:	00100393          	li	t2,1
8000018c:	00900193          	li	gp,9
80000190:	1c771c63          	bne	a4,t2,80000368 <fail>

80000194 <test_10>:
80000194:	800000b7          	lui	ra,0x80000
80000198:	fff08093          	addi	ra,ra,-1 # 7fffffff <_end+0xffffdfff>
8000019c:	0000a713          	slti	a4,ra,0
800001a0:	00000393          	li	t2,0
800001a4:	00a00193          	li	gp,10
800001a8:	1c771063          	bne	a4,t2,80000368 <fail>

800001ac <test_11>:
800001ac:	800000b7          	lui	ra,0x80000
800001b0:	fff08093          	addi	ra,ra,-1 # 7fffffff <_end+0xffffdfff>
800001b4:	7ff0a713          	slti	a4,ra,2047
800001b8:	00000393          	li	t2,0
800001bc:	00b00193          	li	gp,11
800001c0:	1a771463          	bne	a4,t2,80000368 <fail>

800001c4 <test_12>:
800001c4:	800000b7          	lui	ra,0x80000
800001c8:	7ff0a713          	slti	a4,ra,2047
800001cc:	00100393          	li	t2,1
800001d0:	00c00193          	li	gp,12
800001d4:	18771a63          	bne	a4,t2,80000368 <fail>

800001d8 <test_13>:
800001d8:	800000b7          	lui	ra,0x80000
800001dc:	fff08093          	addi	ra,ra,-1 # 7fffffff <_end+0xffffdfff>
800001e0:	8000a713          	slti	a4,ra,-2048
800001e4:	00000393          	li	t2,0
800001e8:	00d00193          	li	gp,13
800001ec:	16771e63          	bne	a4,t2,80000368 <fail>

800001f0 <test_14>:
800001f0:	00000093          	li	ra,0
800001f4:	fff0a713          	slti	a4,ra,-1
800001f8:	00000393          	li	t2,0
800001fc:	00e00193          	li	gp,14
80000200:	16771463          	bne	a4,t2,80000368 <fail>

80000204 <test_15>:
80000204:	fff00093          	li	ra,-1
80000208:	0010a713          	slti	a4,ra,1
8000020c:	00100393          	li	t2,1
80000210:	00f00193          	li	gp,15
80000214:	14771a63          	bne	a4,t2,80000368 <fail>

80000218 <test_16>:
80000218:	fff00093          	li	ra,-1
8000021c:	fff0a713          	slti	a4,ra,-1
80000220:	00000393          	li	t2,0
80000224:	01000193          	li	gp,16
80000228:	14771063          	bne	a4,t2,80000368 <fail>

8000022c <test_17>:
8000022c:	00b00093          	li	ra,11
80000230:	00d0a093          	slti	ra,ra,13
80000234:	00100393          	li	t2,1
80000238:	01100193          	li	gp,17
8000023c:	12709663          	bne	ra,t2,80000368 <fail>

80000240 <test_18>:
80000240:	00000213          	li	tp,0
80000244:	00f00093          	li	ra,15
80000248:	00a0a713          	slti	a4,ra,10
8000024c:	00070313          	mv	t1,a4
80000250:	00120213          	addi	tp,tp,1 # 1 <_start-0x7fffffff>
80000254:	00200293          	li	t0,2
80000258:	fe5216e3          	bne	tp,t0,80000244 <test_18+0x4>
8000025c:	00000393          	li	t2,0
80000260:	01200193          	li	gp,18
80000264:	10731263          	bne	t1,t2,80000368 <fail>

80000268 <test_19>:
80000268:	00000213          	li	tp,0
8000026c:	00a00093          	li	ra,10
80000270:	0100a713          	slti	a4,ra,16
80000274:	00000013          	nop
80000278:	00070313          	mv	t1,a4
8000027c:	00120213          	addi	tp,tp,1 # 1 <_start-0x7fffffff>
80000280:	00200293          	li	t0,2
80000284:	fe5214e3          	bne	tp,t0,8000026c <test_19+0x4>
80000288:	00100393          	li	t2,1
8000028c:	01300193          	li	gp,19
80000290:	0c731c63          	bne	t1,t2,80000368 <fail>

80000294 <test_20>:
80000294:	00000213          	li	tp,0
80000298:	01000093          	li	ra,16
8000029c:	0090a713          	slti	a4,ra,9
800002a0:	00000013          	nop
800002a4:	00000013          	nop
800002a8:	00070313          	mv	t1,a4
800002ac:	00120213          	addi	tp,tp,1 # 1 <_start-0x7fffffff>
800002b0:	00200293          	li	t0,2
800002b4:	fe5212e3          	bne	tp,t0,80000298 <test_20+0x4>
800002b8:	00000393          	li	t2,0
800002bc:	01400193          	li	gp,20
800002c0:	0a731463          	bne	t1,t2,80000368 <fail>

800002c4 <test_21>:
800002c4:	00000213          	li	tp,0
800002c8:	00b00093          	li	ra,11
800002cc:	00f0a713          	slti	a4,ra,15
800002d0:	00120213          	addi	tp,tp,1 # 1 <_start-0x7fffffff>
800002d4:	00200293          	li	t0,2
800002d8:	fe5218e3          	bne	tp,t0,800002c8 <test_21+0x4>
800002dc:	00100393          	li	t2,1
800002e0:	01500193          	li	gp,21
800002e4:	08771263          	bne	a4,t2,80000368 <fail>

800002e8 <test_22>:
800002e8:	00000213          	li	tp,0
800002ec:	01100093          	li	ra,17
800002f0:	00000013          	nop
800002f4:	0080a713          	slti	a4,ra,8
800002f8:	00120213          	addi	tp,tp,1 # 1 <_start-0x7fffffff>
800002fc:	00200293          	li	t0,2
80000300:	fe5216e3          	bne	tp,t0,800002ec <test_22+0x4>
80000304:	00000393          	li	t2,0
80000308:	01600193          	li	gp,22
8000030c:	04771e63          	bne	a4,t2,80000368 <fail>

80000310 <test_23>:
80000310:	00000213          	li	tp,0
80000314:	00c00093          	li	ra,12
80000318:	00000013          	nop
8000031c:	00000013          	nop
80000320:	00e0a713          	slti	a4,ra,14
80000324:	00120213          	addi	tp,tp,1 # 1 <_start-0x7fffffff>
80000328:	00200293          	li	t0,2
8000032c:	fe5214e3          	bne	tp,t0,80000314 <test_23+0x4>
80000330:	00100393          	li	t2,1
80000334:	01700193          	li	gp,23
80000338:	02771863          	bne	a4,t2,80000368 <fail>

8000033c <test_24>:
8000033c:	fff02093          	slti	ra,zero,-1
80000340:	00000393          	li	t2,0
80000344:	01800193          	li	gp,24
80000348:	02709063          	bne	ra,t2,80000368 <fail>

8000034c <test_25>:
8000034c:	00ff00b7          	lui	ra,0xff0
80000350:	0ff08093          	addi	ra,ra,255 # ff00ff <_start-0x7f00ff01>
80000354:	fff0a013          	slti	zero,ra,-1
80000358:	00000393          	li	t2,0
8000035c:	01900193          	li	gp,25
80000360:	00701463          	bne	zero,t2,80000368 <fail>
80000364:	00301c63          	bne	zero,gp,8000037c <pass>

80000368 <fail>:
80000368:	0ff0000f          	fence
8000036c:	00018063          	beqz	gp,8000036c <fail+0x4>
80000370:	00119193          	slli	gp,gp,0x1
80000374:	0011e193          	ori	gp,gp,1
80000378:	00000073          	ecall

8000037c <pass>:
8000037c:	0ff0000f          	fence
80000380:	00100193          	li	gp,1
80000384:	00000073          	ecall
80000388:	c0001073          	unimp
8000038c:	0000                	unimp
8000038e:	0000                	unimp
80000390:	0000                	unimp
80000392:	0000                	unimp
80000394:	0000                	unimp
80000396:	0000                	unimp
80000398:	0000                	unimp
8000039a:	0000                	unimp
8000039c:	0000                	unimp
8000039e:	0000                	unimp
800003a0:	0000                	unimp
800003a2:	0000                	unimp
800003a4:	0000                	unimp
800003a6:	0000                	unimp
800003a8:	0000                	unimp
800003aa:	0000                	unimp
800003ac:	0000                	unimp
800003ae:	0000                	unimp
800003b0:	0000                	unimp
800003b2:	0000                	unimp
800003b4:	0000                	unimp
800003b6:	0000                	unimp
800003b8:	0000                	unimp
800003ba:	0000                	unimp
