
rv32ui-p-lhu:     file format elf32-littleriscv


Disassembly of section .text.init:

80000000 <_start>:
80000000:	0480006f          	j	80000048 <reset_vector>

80000004 <trap_vector>:
80000004:	34202f73          	csrr	t5,mcause
80000008:	00800f93          	li	t6,8
8000000c:	03ff0863          	beq	t5,t6,8000003c <write_tohost>
80000010:	00900f93          	li	t6,9
80000014:	03ff0463          	beq	t5,t6,8000003c <write_tohost>
80000018:	00b00f93          	li	t6,11
8000001c:	03ff0063          	beq	t5,t6,8000003c <write_tohost>
80000020:	00000f13          	li	t5,0
80000024:	000f0463          	beqz	t5,8000002c <trap_vector+0x28>
80000028:	000f0067          	jr	t5
8000002c:	34202f73          	csrr	t5,mcause
80000030:	000f5463          	bgez	t5,80000038 <handle_exception>
80000034:	0040006f          	j	80000038 <handle_exception>

80000038 <handle_exception>:
80000038:	5391e193          	ori	gp,gp,1337

8000003c <write_tohost>:
8000003c:	00001f17          	auipc	t5,0x1
80000040:	fc3f2223          	sw	gp,-60(t5) # 80001000 <tohost>
80000044:	ff9ff06f          	j	8000003c <write_tohost>

80000048 <reset_vector>:
80000048:	f1402573          	csrr	a0,mhartid
8000004c:	00051063          	bnez	a0,8000004c <reset_vector+0x4>
80000050:	00000297          	auipc	t0,0x0
80000054:	01028293          	addi	t0,t0,16 # 80000060 <reset_vector+0x18>
80000058:	30529073          	csrw	mtvec,t0
8000005c:	18005073          	csrwi	satp,0
80000060:	00000297          	auipc	t0,0x0
80000064:	01c28293          	addi	t0,t0,28 # 8000007c <reset_vector+0x34>
80000068:	30529073          	csrw	mtvec,t0
8000006c:	fff00293          	li	t0,-1
80000070:	3b029073          	csrw	pmpaddr0,t0
80000074:	01f00293          	li	t0,31
80000078:	3a029073          	csrw	pmpcfg0,t0
8000007c:	00000297          	auipc	t0,0x0
80000080:	01828293          	addi	t0,t0,24 # 80000094 <reset_vector+0x4c>
80000084:	30529073          	csrw	mtvec,t0
80000088:	30205073          	csrwi	medeleg,0
8000008c:	30305073          	csrwi	mideleg,0
80000090:	30405073          	csrwi	mie,0
80000094:	00000193          	li	gp,0
80000098:	00000297          	auipc	t0,0x0
8000009c:	f6c28293          	addi	t0,t0,-148 # 80000004 <trap_vector>
800000a0:	30529073          	csrw	mtvec,t0
800000a4:	00100513          	li	a0,1
800000a8:	01f51513          	slli	a0,a0,0x1f
800000ac:	00054863          	bltz	a0,800000bc <reset_vector+0x74>
800000b0:	0ff0000f          	fence
800000b4:	00100193          	li	gp,1
800000b8:	00000073          	ecall
800000bc:	00000293          	li	t0,0
800000c0:	00028e63          	beqz	t0,800000dc <reset_vector+0x94>
800000c4:	10529073          	csrw	stvec,t0
800000c8:	0000b2b7          	lui	t0,0xb
800000cc:	10928293          	addi	t0,t0,265 # b109 <_start-0x7fff4ef7>
800000d0:	30229073          	csrw	medeleg,t0
800000d4:	30202373          	csrr	t1,medeleg
800000d8:	f66290e3          	bne	t0,t1,80000038 <handle_exception>
800000dc:	30005073          	csrwi	mstatus,0
800000e0:	00000297          	auipc	t0,0x0
800000e4:	01428293          	addi	t0,t0,20 # 800000f4 <test_2>
800000e8:	34129073          	csrw	mepc,t0
800000ec:	f1402573          	csrr	a0,mhartid
800000f0:	30200073          	mret

800000f4 <test_2>:
800000f4:	00002097          	auipc	ra,0x2
800000f8:	f0c08093          	addi	ra,ra,-244 # 80002000 <begin_signature>
800000fc:	0000d703          	lhu	a4,0(ra)
80000100:	0ff00393          	li	t2,255
80000104:	00200193          	li	gp,2
80000108:	26771663          	bne	a4,t2,80000374 <fail>

8000010c <test_3>:
8000010c:	00002097          	auipc	ra,0x2
80000110:	ef408093          	addi	ra,ra,-268 # 80002000 <begin_signature>
80000114:	0020d703          	lhu	a4,2(ra)
80000118:	000103b7          	lui	t2,0x10
8000011c:	f0038393          	addi	t2,t2,-256 # ff00 <_start-0x7fff0100>
80000120:	00300193          	li	gp,3
80000124:	24771863          	bne	a4,t2,80000374 <fail>

80000128 <test_4>:
80000128:	00002097          	auipc	ra,0x2
8000012c:	ed808093          	addi	ra,ra,-296 # 80002000 <begin_signature>
80000130:	0040d703          	lhu	a4,4(ra)
80000134:	000013b7          	lui	t2,0x1
80000138:	ff038393          	addi	t2,t2,-16 # ff0 <_start-0x7ffff010>
8000013c:	00400193          	li	gp,4
80000140:	22771a63          	bne	a4,t2,80000374 <fail>

80000144 <test_5>:
80000144:	00002097          	auipc	ra,0x2
80000148:	ebc08093          	addi	ra,ra,-324 # 80002000 <begin_signature>
8000014c:	0060d703          	lhu	a4,6(ra)
80000150:	0000f3b7          	lui	t2,0xf
80000154:	00f38393          	addi	t2,t2,15 # f00f <_start-0x7fff0ff1>
80000158:	00500193          	li	gp,5
8000015c:	20771c63          	bne	a4,t2,80000374 <fail>

80000160 <test_6>:
80000160:	00002097          	auipc	ra,0x2
80000164:	ea608093          	addi	ra,ra,-346 # 80002006 <tdat4>
80000168:	ffa0d703          	lhu	a4,-6(ra)
8000016c:	0ff00393          	li	t2,255
80000170:	00600193          	li	gp,6
80000174:	20771063          	bne	a4,t2,80000374 <fail>

80000178 <test_7>:
80000178:	00002097          	auipc	ra,0x2
8000017c:	e8e08093          	addi	ra,ra,-370 # 80002006 <tdat4>
80000180:	ffc0d703          	lhu	a4,-4(ra)
80000184:	000103b7          	lui	t2,0x10
80000188:	f0038393          	addi	t2,t2,-256 # ff00 <_start-0x7fff0100>
8000018c:	00700193          	li	gp,7
80000190:	1e771263          	bne	a4,t2,80000374 <fail>

80000194 <test_8>:
80000194:	00002097          	auipc	ra,0x2
80000198:	e7208093          	addi	ra,ra,-398 # 80002006 <tdat4>
8000019c:	ffe0d703          	lhu	a4,-2(ra)
800001a0:	000013b7          	lui	t2,0x1
800001a4:	ff038393          	addi	t2,t2,-16 # ff0 <_start-0x7ffff010>
800001a8:	00800193          	li	gp,8
800001ac:	1c771463          	bne	a4,t2,80000374 <fail>

800001b0 <test_9>:
800001b0:	00002097          	auipc	ra,0x2
800001b4:	e5608093          	addi	ra,ra,-426 # 80002006 <tdat4>
800001b8:	0000d703          	lhu	a4,0(ra)
800001bc:	0000f3b7          	lui	t2,0xf
800001c0:	00f38393          	addi	t2,t2,15 # f00f <_start-0x7fff0ff1>
800001c4:	00900193          	li	gp,9
800001c8:	1a771663          	bne	a4,t2,80000374 <fail>

800001cc <test_10>:
800001cc:	00002097          	auipc	ra,0x2
800001d0:	e3408093          	addi	ra,ra,-460 # 80002000 <begin_signature>
800001d4:	fe008093          	addi	ra,ra,-32
800001d8:	0200d283          	lhu	t0,32(ra)
800001dc:	0ff00393          	li	t2,255
800001e0:	00a00193          	li	gp,10
800001e4:	18729863          	bne	t0,t2,80000374 <fail>

800001e8 <test_11>:
800001e8:	00002097          	auipc	ra,0x2
800001ec:	e1808093          	addi	ra,ra,-488 # 80002000 <begin_signature>
800001f0:	ffb08093          	addi	ra,ra,-5
800001f4:	0070d283          	lhu	t0,7(ra)
800001f8:	000103b7          	lui	t2,0x10
800001fc:	f0038393          	addi	t2,t2,-256 # ff00 <_start-0x7fff0100>
80000200:	00b00193          	li	gp,11
80000204:	16729863          	bne	t0,t2,80000374 <fail>

80000208 <test_12>:
80000208:	00c00193          	li	gp,12
8000020c:	00000213          	li	tp,0
80000210:	00002097          	auipc	ra,0x2
80000214:	df208093          	addi	ra,ra,-526 # 80002002 <tdat2>
80000218:	0020d703          	lhu	a4,2(ra)
8000021c:	00070313          	mv	t1,a4
80000220:	000013b7          	lui	t2,0x1
80000224:	ff038393          	addi	t2,t2,-16 # ff0 <_start-0x7ffff010>
80000228:	14731663          	bne	t1,t2,80000374 <fail>
8000022c:	00120213          	addi	tp,tp,1 # 1 <_start-0x7fffffff>
80000230:	00200293          	li	t0,2
80000234:	fc521ee3          	bne	tp,t0,80000210 <test_12+0x8>

80000238 <test_13>:
80000238:	00d00193          	li	gp,13
8000023c:	00000213          	li	tp,0
80000240:	00002097          	auipc	ra,0x2
80000244:	dc408093          	addi	ra,ra,-572 # 80002004 <tdat3>
80000248:	0020d703          	lhu	a4,2(ra)
8000024c:	00000013          	nop
80000250:	00070313          	mv	t1,a4
80000254:	0000f3b7          	lui	t2,0xf
80000258:	00f38393          	addi	t2,t2,15 # f00f <_start-0x7fff0ff1>
8000025c:	10731c63          	bne	t1,t2,80000374 <fail>
80000260:	00120213          	addi	tp,tp,1 # 1 <_start-0x7fffffff>
80000264:	00200293          	li	t0,2
80000268:	fc521ce3          	bne	tp,t0,80000240 <test_13+0x8>

8000026c <test_14>:
8000026c:	00e00193          	li	gp,14
80000270:	00000213          	li	tp,0
80000274:	00002097          	auipc	ra,0x2
80000278:	d8c08093          	addi	ra,ra,-628 # 80002000 <begin_signature>
8000027c:	0020d703          	lhu	a4,2(ra)
80000280:	00000013          	nop
80000284:	00000013          	nop
80000288:	00070313          	mv	t1,a4
8000028c:	000103b7          	lui	t2,0x10
80000290:	f0038393          	addi	t2,t2,-256 # ff00 <_start-0x7fff0100>
80000294:	0e731063          	bne	t1,t2,80000374 <fail>
80000298:	00120213          	addi	tp,tp,1 # 1 <_start-0x7fffffff>
8000029c:	00200293          	li	t0,2
800002a0:	fc521ae3          	bne	tp,t0,80000274 <test_14+0x8>

800002a4 <test_15>:
800002a4:	00f00193          	li	gp,15
800002a8:	00000213          	li	tp,0
800002ac:	00002097          	auipc	ra,0x2
800002b0:	d5608093          	addi	ra,ra,-682 # 80002002 <tdat2>
800002b4:	0020d703          	lhu	a4,2(ra)
800002b8:	000013b7          	lui	t2,0x1
800002bc:	ff038393          	addi	t2,t2,-16 # ff0 <_start-0x7ffff010>
800002c0:	0a771a63          	bne	a4,t2,80000374 <fail>
800002c4:	00120213          	addi	tp,tp,1 # 1 <_start-0x7fffffff>
800002c8:	00200293          	li	t0,2
800002cc:	fe5210e3          	bne	tp,t0,800002ac <test_15+0x8>

800002d0 <test_16>:
800002d0:	01000193          	li	gp,16
800002d4:	00000213          	li	tp,0
800002d8:	00002097          	auipc	ra,0x2
800002dc:	d2c08093          	addi	ra,ra,-724 # 80002004 <tdat3>
800002e0:	00000013          	nop
800002e4:	0020d703          	lhu	a4,2(ra)
800002e8:	0000f3b7          	lui	t2,0xf
800002ec:	00f38393          	addi	t2,t2,15 # f00f <_start-0x7fff0ff1>
800002f0:	08771263          	bne	a4,t2,80000374 <fail>
800002f4:	00120213          	addi	tp,tp,1 # 1 <_start-0x7fffffff>
800002f8:	00200293          	li	t0,2
800002fc:	fc521ee3          	bne	tp,t0,800002d8 <test_16+0x8>

80000300 <test_17>:
80000300:	01100193          	li	gp,17
80000304:	00000213          	li	tp,0
80000308:	00002097          	auipc	ra,0x2
8000030c:	cf808093          	addi	ra,ra,-776 # 80002000 <begin_signature>
80000310:	00000013          	nop
80000314:	00000013          	nop
80000318:	0020d703          	lhu	a4,2(ra)
8000031c:	000103b7          	lui	t2,0x10
80000320:	f0038393          	addi	t2,t2,-256 # ff00 <_start-0x7fff0100>
80000324:	04771863          	bne	a4,t2,80000374 <fail>
80000328:	00120213          	addi	tp,tp,1 # 1 <_start-0x7fffffff>
8000032c:	00200293          	li	t0,2
80000330:	fc521ce3          	bne	tp,t0,80000308 <test_17+0x8>

80000334 <test_18>:
80000334:	00002297          	auipc	t0,0x2
80000338:	ccc28293          	addi	t0,t0,-820 # 80002000 <begin_signature>
8000033c:	0002d103          	lhu	sp,0(t0)
80000340:	00200113          	li	sp,2
80000344:	00200393          	li	t2,2
80000348:	01200193          	li	gp,18
8000034c:	02711463          	bne	sp,t2,80000374 <fail>

80000350 <test_19>:
80000350:	00002297          	auipc	t0,0x2
80000354:	cb028293          	addi	t0,t0,-848 # 80002000 <begin_signature>
80000358:	0002d103          	lhu	sp,0(t0)
8000035c:	00000013          	nop
80000360:	00200113          	li	sp,2
80000364:	00200393          	li	t2,2
80000368:	01300193          	li	gp,19
8000036c:	00711463          	bne	sp,t2,80000374 <fail>
80000370:	00301c63          	bne	zero,gp,80000388 <pass>

80000374 <fail>:
80000374:	0ff0000f          	fence
80000378:	00018063          	beqz	gp,80000378 <fail+0x4>
8000037c:	00119193          	slli	gp,gp,0x1
80000380:	0011e193          	ori	gp,gp,1
80000384:	00000073          	ecall

80000388 <pass>:
80000388:	0ff0000f          	fence
8000038c:	00100193          	li	gp,1
80000390:	00000073          	ecall
80000394:	c0001073          	unimp
80000398:	0000                	unimp
8000039a:	0000                	unimp
8000039c:	0000                	unimp
8000039e:	0000                	unimp
800003a0:	0000                	unimp
800003a2:	0000                	unimp
800003a4:	0000                	unimp
800003a6:	0000                	unimp
800003a8:	0000                	unimp
800003aa:	0000                	unimp
800003ac:	0000                	unimp
800003ae:	0000                	unimp
800003b0:	0000                	unimp
800003b2:	0000                	unimp
800003b4:	0000                	unimp
800003b6:	0000                	unimp
800003b8:	0000                	unimp
800003ba:	0000                	unimp

Disassembly of section .data:

80002000 <begin_signature>:
80002000:	00ff                	0xff

80002002 <tdat2>:
80002002:	ff00                	fsw	fs0,56(a4)

80002004 <tdat3>:
80002004:	0ff0                	addi	a2,sp,988

80002006 <tdat4>:
80002006:	0000f00f          	0xf00f
8000200a:	0000                	unimp
8000200c:	0000                	unimp
8000200e:	0000                	unimp
