
rv32ui-p-beq:     file format elf32-littleriscv


Disassembly of section .text.init:

80000000 <_start>:
80000000:	0480006f          	j	80000048 <reset_vector>

80000004 <trap_vector>:
80000004:	34202f73          	csrr	t5,mcause
80000008:	00800f93          	li	t6,8
8000000c:	03ff0863          	beq	t5,t6,8000003c <write_tohost>
80000010:	00900f93          	li	t6,9
80000014:	03ff0463          	beq	t5,t6,8000003c <write_tohost>
80000018:	00b00f93          	li	t6,11
8000001c:	03ff0063          	beq	t5,t6,8000003c <write_tohost>
80000020:	00000f13          	li	t5,0
80000024:	000f0463          	beqz	t5,8000002c <trap_vector+0x28>
80000028:	000f0067          	jr	t5
8000002c:	34202f73          	csrr	t5,mcause
80000030:	000f5463          	bgez	t5,80000038 <handle_exception>
80000034:	0040006f          	j	80000038 <handle_exception>

80000038 <handle_exception>:
80000038:	5391e193          	ori	gp,gp,1337

8000003c <write_tohost>:
8000003c:	00001f17          	auipc	t5,0x1
80000040:	fc3f2223          	sw	gp,-60(t5) # 80001000 <tohost>
80000044:	ff9ff06f          	j	8000003c <write_tohost>

80000048 <reset_vector>:
80000048:	f1402573          	csrr	a0,mhartid
8000004c:	00051063          	bnez	a0,8000004c <reset_vector+0x4>
80000050:	00000297          	auipc	t0,0x0
80000054:	01028293          	addi	t0,t0,16 # 80000060 <reset_vector+0x18>
80000058:	30529073          	csrw	mtvec,t0
8000005c:	18005073          	csrwi	satp,0
80000060:	00000297          	auipc	t0,0x0
80000064:	01c28293          	addi	t0,t0,28 # 8000007c <reset_vector+0x34>
80000068:	30529073          	csrw	mtvec,t0
8000006c:	fff00293          	li	t0,-1
80000070:	3b029073          	csrw	pmpaddr0,t0
80000074:	01f00293          	li	t0,31
80000078:	3a029073          	csrw	pmpcfg0,t0
8000007c:	00000297          	auipc	t0,0x0
80000080:	01828293          	addi	t0,t0,24 # 80000094 <reset_vector+0x4c>
80000084:	30529073          	csrw	mtvec,t0
80000088:	30205073          	csrwi	medeleg,0
8000008c:	30305073          	csrwi	mideleg,0
80000090:	30405073          	csrwi	mie,0
80000094:	00000193          	li	gp,0
80000098:	00000297          	auipc	t0,0x0
8000009c:	f6c28293          	addi	t0,t0,-148 # 80000004 <trap_vector>
800000a0:	30529073          	csrw	mtvec,t0
800000a4:	00100513          	li	a0,1
800000a8:	01f51513          	slli	a0,a0,0x1f
800000ac:	00054863          	bltz	a0,800000bc <reset_vector+0x74>
800000b0:	0ff0000f          	fence
800000b4:	00100193          	li	gp,1
800000b8:	00000073          	ecall
800000bc:	00000293          	li	t0,0
800000c0:	00028e63          	beqz	t0,800000dc <reset_vector+0x94>
800000c4:	10529073          	csrw	stvec,t0
800000c8:	0000b2b7          	lui	t0,0xb
800000cc:	10928293          	addi	t0,t0,265 # b109 <_start-0x7fff4ef7>
800000d0:	30229073          	csrw	medeleg,t0
800000d4:	30202373          	csrr	t1,medeleg
800000d8:	f66290e3          	bne	t0,t1,80000038 <handle_exception>
800000dc:	30005073          	csrwi	mstatus,0
800000e0:	00000297          	auipc	t0,0x0
800000e4:	01428293          	addi	t0,t0,20 # 800000f4 <test_2>
800000e8:	34129073          	csrw	mepc,t0
800000ec:	f1402573          	csrr	a0,mhartid
800000f0:	30200073          	mret

800000f4 <test_2>:
800000f4:	00200193          	li	gp,2
800000f8:	00000093          	li	ra,0
800000fc:	00000113          	li	sp,0
80000100:	00208663          	beq	ra,sp,8000010c <test_2+0x18>
80000104:	2a301863          	bne	zero,gp,800003b4 <fail>
80000108:	00301663          	bne	zero,gp,80000114 <test_3>
8000010c:	fe208ee3          	beq	ra,sp,80000108 <test_2+0x14>
80000110:	2a301263          	bne	zero,gp,800003b4 <fail>

80000114 <test_3>:
80000114:	00300193          	li	gp,3
80000118:	00100093          	li	ra,1
8000011c:	00100113          	li	sp,1
80000120:	00208663          	beq	ra,sp,8000012c <test_3+0x18>
80000124:	28301863          	bne	zero,gp,800003b4 <fail>
80000128:	00301663          	bne	zero,gp,80000134 <test_4>
8000012c:	fe208ee3          	beq	ra,sp,80000128 <test_3+0x14>
80000130:	28301263          	bne	zero,gp,800003b4 <fail>

80000134 <test_4>:
80000134:	00400193          	li	gp,4
80000138:	fff00093          	li	ra,-1
8000013c:	fff00113          	li	sp,-1
80000140:	00208663          	beq	ra,sp,8000014c <test_4+0x18>
80000144:	26301863          	bne	zero,gp,800003b4 <fail>
80000148:	00301663          	bne	zero,gp,80000154 <test_5>
8000014c:	fe208ee3          	beq	ra,sp,80000148 <test_4+0x14>
80000150:	26301263          	bne	zero,gp,800003b4 <fail>

80000154 <test_5>:
80000154:	00500193          	li	gp,5
80000158:	00000093          	li	ra,0
8000015c:	00100113          	li	sp,1
80000160:	00208463          	beq	ra,sp,80000168 <test_5+0x14>
80000164:	00301463          	bne	zero,gp,8000016c <test_5+0x18>
80000168:	24301663          	bne	zero,gp,800003b4 <fail>
8000016c:	fe208ee3          	beq	ra,sp,80000168 <test_5+0x14>

80000170 <test_6>:
80000170:	00600193          	li	gp,6
80000174:	00100093          	li	ra,1
80000178:	00000113          	li	sp,0
8000017c:	00208463          	beq	ra,sp,80000184 <test_6+0x14>
80000180:	00301463          	bne	zero,gp,80000188 <test_6+0x18>
80000184:	22301863          	bne	zero,gp,800003b4 <fail>
80000188:	fe208ee3          	beq	ra,sp,80000184 <test_6+0x14>

8000018c <test_7>:
8000018c:	00700193          	li	gp,7
80000190:	fff00093          	li	ra,-1
80000194:	00100113          	li	sp,1
80000198:	00208463          	beq	ra,sp,800001a0 <test_7+0x14>
8000019c:	00301463          	bne	zero,gp,800001a4 <test_7+0x18>
800001a0:	20301a63          	bne	zero,gp,800003b4 <fail>
800001a4:	fe208ee3          	beq	ra,sp,800001a0 <test_7+0x14>

800001a8 <test_8>:
800001a8:	00800193          	li	gp,8
800001ac:	00100093          	li	ra,1
800001b0:	fff00113          	li	sp,-1
800001b4:	00208463          	beq	ra,sp,800001bc <test_8+0x14>
800001b8:	00301463          	bne	zero,gp,800001c0 <test_8+0x18>
800001bc:	1e301c63          	bne	zero,gp,800003b4 <fail>
800001c0:	fe208ee3          	beq	ra,sp,800001bc <test_8+0x14>

800001c4 <test_9>:
800001c4:	00900193          	li	gp,9
800001c8:	00000213          	li	tp,0
800001cc:	00000093          	li	ra,0
800001d0:	fff00113          	li	sp,-1
800001d4:	1e208063          	beq	ra,sp,800003b4 <fail>
800001d8:	00120213          	addi	tp,tp,1 # 1 <_start-0x7fffffff>
800001dc:	00200293          	li	t0,2
800001e0:	fe5216e3          	bne	tp,t0,800001cc <test_9+0x8>

800001e4 <test_10>:
800001e4:	00a00193          	li	gp,10
800001e8:	00000213          	li	tp,0
800001ec:	00000093          	li	ra,0
800001f0:	fff00113          	li	sp,-1
800001f4:	00000013          	nop
800001f8:	1a208e63          	beq	ra,sp,800003b4 <fail>
800001fc:	00120213          	addi	tp,tp,1 # 1 <_start-0x7fffffff>
80000200:	00200293          	li	t0,2
80000204:	fe5214e3          	bne	tp,t0,800001ec <test_10+0x8>

80000208 <test_11>:
80000208:	00b00193          	li	gp,11
8000020c:	00000213          	li	tp,0
80000210:	00000093          	li	ra,0
80000214:	fff00113          	li	sp,-1
80000218:	00000013          	nop
8000021c:	00000013          	nop
80000220:	18208a63          	beq	ra,sp,800003b4 <fail>
80000224:	00120213          	addi	tp,tp,1 # 1 <_start-0x7fffffff>
80000228:	00200293          	li	t0,2
8000022c:	fe5212e3          	bne	tp,t0,80000210 <test_11+0x8>

80000230 <test_12>:
80000230:	00c00193          	li	gp,12
80000234:	00000213          	li	tp,0
80000238:	00000093          	li	ra,0
8000023c:	00000013          	nop
80000240:	fff00113          	li	sp,-1
80000244:	16208863          	beq	ra,sp,800003b4 <fail>
80000248:	00120213          	addi	tp,tp,1 # 1 <_start-0x7fffffff>
8000024c:	00200293          	li	t0,2
80000250:	fe5214e3          	bne	tp,t0,80000238 <test_12+0x8>

80000254 <test_13>:
80000254:	00d00193          	li	gp,13
80000258:	00000213          	li	tp,0
8000025c:	00000093          	li	ra,0
80000260:	00000013          	nop
80000264:	fff00113          	li	sp,-1
80000268:	00000013          	nop
8000026c:	14208463          	beq	ra,sp,800003b4 <fail>
80000270:	00120213          	addi	tp,tp,1 # 1 <_start-0x7fffffff>
80000274:	00200293          	li	t0,2
80000278:	fe5212e3          	bne	tp,t0,8000025c <test_13+0x8>

8000027c <test_14>:
8000027c:	00e00193          	li	gp,14
80000280:	00000213          	li	tp,0
80000284:	00000093          	li	ra,0
80000288:	00000013          	nop
8000028c:	00000013          	nop
80000290:	fff00113          	li	sp,-1
80000294:	12208063          	beq	ra,sp,800003b4 <fail>
80000298:	00120213          	addi	tp,tp,1 # 1 <_start-0x7fffffff>
8000029c:	00200293          	li	t0,2
800002a0:	fe5212e3          	bne	tp,t0,80000284 <test_14+0x8>

800002a4 <test_15>:
800002a4:	00f00193          	li	gp,15
800002a8:	00000213          	li	tp,0
800002ac:	00000093          	li	ra,0
800002b0:	fff00113          	li	sp,-1
800002b4:	10208063          	beq	ra,sp,800003b4 <fail>
800002b8:	00120213          	addi	tp,tp,1 # 1 <_start-0x7fffffff>
800002bc:	00200293          	li	t0,2
800002c0:	fe5216e3          	bne	tp,t0,800002ac <test_15+0x8>

800002c4 <test_16>:
800002c4:	01000193          	li	gp,16
800002c8:	00000213          	li	tp,0
800002cc:	00000093          	li	ra,0
800002d0:	fff00113          	li	sp,-1
800002d4:	00000013          	nop
800002d8:	0c208e63          	beq	ra,sp,800003b4 <fail>
800002dc:	00120213          	addi	tp,tp,1 # 1 <_start-0x7fffffff>
800002e0:	00200293          	li	t0,2
800002e4:	fe5214e3          	bne	tp,t0,800002cc <test_16+0x8>

800002e8 <test_17>:
800002e8:	01100193          	li	gp,17
800002ec:	00000213          	li	tp,0
800002f0:	00000093          	li	ra,0
800002f4:	fff00113          	li	sp,-1
800002f8:	00000013          	nop
800002fc:	00000013          	nop
80000300:	0a208a63          	beq	ra,sp,800003b4 <fail>
80000304:	00120213          	addi	tp,tp,1 # 1 <_start-0x7fffffff>
80000308:	00200293          	li	t0,2
8000030c:	fe5212e3          	bne	tp,t0,800002f0 <test_17+0x8>

80000310 <test_18>:
80000310:	01200193          	li	gp,18
80000314:	00000213          	li	tp,0
80000318:	00000093          	li	ra,0
8000031c:	00000013          	nop
80000320:	fff00113          	li	sp,-1
80000324:	08208863          	beq	ra,sp,800003b4 <fail>
80000328:	00120213          	addi	tp,tp,1 # 1 <_start-0x7fffffff>
8000032c:	00200293          	li	t0,2
80000330:	fe5214e3          	bne	tp,t0,80000318 <test_18+0x8>

80000334 <test_19>:
80000334:	01300193          	li	gp,19
80000338:	00000213          	li	tp,0
8000033c:	00000093          	li	ra,0
80000340:	00000013          	nop
80000344:	fff00113          	li	sp,-1
80000348:	00000013          	nop
8000034c:	06208463          	beq	ra,sp,800003b4 <fail>
80000350:	00120213          	addi	tp,tp,1 # 1 <_start-0x7fffffff>
80000354:	00200293          	li	t0,2
80000358:	fe5212e3          	bne	tp,t0,8000033c <test_19+0x8>

8000035c <test_20>:
8000035c:	01400193          	li	gp,20
80000360:	00000213          	li	tp,0
80000364:	00000093          	li	ra,0
80000368:	00000013          	nop
8000036c:	00000013          	nop
80000370:	fff00113          	li	sp,-1
80000374:	04208063          	beq	ra,sp,800003b4 <fail>
80000378:	00120213          	addi	tp,tp,1 # 1 <_start-0x7fffffff>
8000037c:	00200293          	li	t0,2
80000380:	fe5212e3          	bne	tp,t0,80000364 <test_20+0x8>

80000384 <test_21>:
80000384:	00100093          	li	ra,1
80000388:	00000a63          	beqz	zero,8000039c <test_21+0x18>
8000038c:	00108093          	addi	ra,ra,1
80000390:	00108093          	addi	ra,ra,1
80000394:	00108093          	addi	ra,ra,1
80000398:	00108093          	addi	ra,ra,1
8000039c:	00108093          	addi	ra,ra,1
800003a0:	00108093          	addi	ra,ra,1
800003a4:	00300393          	li	t2,3
800003a8:	01500193          	li	gp,21
800003ac:	00709463          	bne	ra,t2,800003b4 <fail>
800003b0:	00301c63          	bne	zero,gp,800003c8 <pass>

800003b4 <fail>:
800003b4:	0ff0000f          	fence
800003b8:	00018063          	beqz	gp,800003b8 <fail+0x4>
800003bc:	00119193          	slli	gp,gp,0x1
800003c0:	0011e193          	ori	gp,gp,1
800003c4:	00000073          	ecall

800003c8 <pass>:
800003c8:	0ff0000f          	fence
800003cc:	00100193          	li	gp,1
800003d0:	00000073          	ecall
800003d4:	c0001073          	unimp
800003d8:	0000                	unimp
800003da:	0000                	unimp
800003dc:	0000                	unimp
800003de:	0000                	unimp
800003e0:	0000                	unimp
800003e2:	0000                	unimp
800003e4:	0000                	unimp
800003e6:	0000                	unimp
800003e8:	0000                	unimp
800003ea:	0000                	unimp
800003ec:	0000                	unimp
800003ee:	0000                	unimp
800003f0:	0000                	unimp
800003f2:	0000                	unimp
800003f4:	0000                	unimp
800003f6:	0000                	unimp
800003f8:	0000                	unimp
800003fa:	0000                	unimp
