
rv32ui-p-srl:     file format elf32-littleriscv


Disassembly of section .text.init:

80000000 <_start>:
80000000:	0480006f          	j	80000048 <reset_vector>

80000004 <trap_vector>:
80000004:	34202f73          	csrr	t5,mcause
80000008:	00800f93          	li	t6,8
8000000c:	03ff0863          	beq	t5,t6,8000003c <write_tohost>
80000010:	00900f93          	li	t6,9
80000014:	03ff0463          	beq	t5,t6,8000003c <write_tohost>
80000018:	00b00f93          	li	t6,11
8000001c:	03ff0063          	beq	t5,t6,8000003c <write_tohost>
80000020:	00000f13          	li	t5,0
80000024:	000f0463          	beqz	t5,8000002c <trap_vector+0x28>
80000028:	000f0067          	jr	t5
8000002c:	34202f73          	csrr	t5,mcause
80000030:	000f5463          	bgez	t5,80000038 <handle_exception>
80000034:	0040006f          	j	80000038 <handle_exception>

80000038 <handle_exception>:
80000038:	5391e193          	ori	gp,gp,1337

8000003c <write_tohost>:
8000003c:	00001f17          	auipc	t5,0x1
80000040:	fc3f2223          	sw	gp,-60(t5) # 80001000 <tohost>
80000044:	ff9ff06f          	j	8000003c <write_tohost>

80000048 <reset_vector>:
80000048:	f1402573          	csrr	a0,mhartid
8000004c:	00051063          	bnez	a0,8000004c <reset_vector+0x4>
80000050:	00000297          	auipc	t0,0x0
80000054:	01028293          	addi	t0,t0,16 # 80000060 <reset_vector+0x18>
80000058:	30529073          	csrw	mtvec,t0
8000005c:	18005073          	csrwi	satp,0
80000060:	00000297          	auipc	t0,0x0
80000064:	01c28293          	addi	t0,t0,28 # 8000007c <reset_vector+0x34>
80000068:	30529073          	csrw	mtvec,t0
8000006c:	fff00293          	li	t0,-1
80000070:	3b029073          	csrw	pmpaddr0,t0
80000074:	01f00293          	li	t0,31
80000078:	3a029073          	csrw	pmpcfg0,t0
8000007c:	00000297          	auipc	t0,0x0
80000080:	01828293          	addi	t0,t0,24 # 80000094 <reset_vector+0x4c>
80000084:	30529073          	csrw	mtvec,t0
80000088:	30205073          	csrwi	medeleg,0
8000008c:	30305073          	csrwi	mideleg,0
80000090:	30405073          	csrwi	mie,0
80000094:	00000193          	li	gp,0
80000098:	00000297          	auipc	t0,0x0
8000009c:	f6c28293          	addi	t0,t0,-148 # 80000004 <trap_vector>
800000a0:	30529073          	csrw	mtvec,t0
800000a4:	00100513          	li	a0,1
800000a8:	01f51513          	slli	a0,a0,0x1f
800000ac:	00054863          	bltz	a0,800000bc <reset_vector+0x74>
800000b0:	0ff0000f          	fence
800000b4:	00100193          	li	gp,1
800000b8:	00000073          	ecall
800000bc:	00000293          	li	t0,0
800000c0:	00028e63          	beqz	t0,800000dc <reset_vector+0x94>
800000c4:	10529073          	csrw	stvec,t0
800000c8:	0000b2b7          	lui	t0,0xb
800000cc:	10928293          	addi	t0,t0,265 # b109 <_start-0x7fff4ef7>
800000d0:	30229073          	csrw	medeleg,t0
800000d4:	30202373          	csrr	t1,medeleg
800000d8:	f66290e3          	bne	t0,t1,80000038 <handle_exception>
800000dc:	30005073          	csrwi	mstatus,0
800000e0:	00000297          	auipc	t0,0x0
800000e4:	01428293          	addi	t0,t0,20 # 800000f4 <test_2>
800000e8:	34129073          	csrw	mepc,t0
800000ec:	f1402573          	csrr	a0,mhartid
800000f0:	30200073          	mret

800000f4 <test_2>:
800000f4:	800000b7          	lui	ra,0x80000
800000f8:	00000113          	li	sp,0
800000fc:	0020d733          	srl	a4,ra,sp
80000100:	800003b7          	lui	t2,0x80000
80000104:	00200193          	li	gp,2
80000108:	56771863          	bne	a4,t2,80000678 <fail>

8000010c <test_3>:
8000010c:	800000b7          	lui	ra,0x80000
80000110:	00100113          	li	sp,1
80000114:	0020d733          	srl	a4,ra,sp
80000118:	400003b7          	lui	t2,0x40000
8000011c:	00300193          	li	gp,3
80000120:	54771c63          	bne	a4,t2,80000678 <fail>

80000124 <test_4>:
80000124:	800000b7          	lui	ra,0x80000
80000128:	00700113          	li	sp,7
8000012c:	0020d733          	srl	a4,ra,sp
80000130:	010003b7          	lui	t2,0x1000
80000134:	00400193          	li	gp,4
80000138:	54771063          	bne	a4,t2,80000678 <fail>

8000013c <test_5>:
8000013c:	800000b7          	lui	ra,0x80000
80000140:	00e00113          	li	sp,14
80000144:	0020d733          	srl	a4,ra,sp
80000148:	000203b7          	lui	t2,0x20
8000014c:	00500193          	li	gp,5
80000150:	52771463          	bne	a4,t2,80000678 <fail>

80000154 <test_6>:
80000154:	800000b7          	lui	ra,0x80000
80000158:	00108093          	addi	ra,ra,1 # 80000001 <_end+0xffffe001>
8000015c:	01f00113          	li	sp,31
80000160:	0020d733          	srl	a4,ra,sp
80000164:	00100393          	li	t2,1
80000168:	00600193          	li	gp,6
8000016c:	50771663          	bne	a4,t2,80000678 <fail>

80000170 <test_7>:
80000170:	fff00093          	li	ra,-1
80000174:	00000113          	li	sp,0
80000178:	0020d733          	srl	a4,ra,sp
8000017c:	fff00393          	li	t2,-1
80000180:	00700193          	li	gp,7
80000184:	4e771a63          	bne	a4,t2,80000678 <fail>

80000188 <test_8>:
80000188:	fff00093          	li	ra,-1
8000018c:	00100113          	li	sp,1
80000190:	0020d733          	srl	a4,ra,sp
80000194:	800003b7          	lui	t2,0x80000
80000198:	fff38393          	addi	t2,t2,-1 # 7fffffff <_end+0xffffdfff>
8000019c:	00800193          	li	gp,8
800001a0:	4c771c63          	bne	a4,t2,80000678 <fail>

800001a4 <test_9>:
800001a4:	fff00093          	li	ra,-1
800001a8:	00700113          	li	sp,7
800001ac:	0020d733          	srl	a4,ra,sp
800001b0:	020003b7          	lui	t2,0x2000
800001b4:	fff38393          	addi	t2,t2,-1 # 1ffffff <_start-0x7e000001>
800001b8:	00900193          	li	gp,9
800001bc:	4a771e63          	bne	a4,t2,80000678 <fail>

800001c0 <test_10>:
800001c0:	fff00093          	li	ra,-1
800001c4:	00e00113          	li	sp,14
800001c8:	0020d733          	srl	a4,ra,sp
800001cc:	000403b7          	lui	t2,0x40
800001d0:	fff38393          	addi	t2,t2,-1 # 3ffff <_start-0x7ffc0001>
800001d4:	00a00193          	li	gp,10
800001d8:	4a771063          	bne	a4,t2,80000678 <fail>

800001dc <test_11>:
800001dc:	fff00093          	li	ra,-1
800001e0:	01f00113          	li	sp,31
800001e4:	0020d733          	srl	a4,ra,sp
800001e8:	00100393          	li	t2,1
800001ec:	00b00193          	li	gp,11
800001f0:	48771463          	bne	a4,t2,80000678 <fail>

800001f4 <test_12>:
800001f4:	212120b7          	lui	ra,0x21212
800001f8:	12108093          	addi	ra,ra,289 # 21212121 <_start-0x5edededf>
800001fc:	00000113          	li	sp,0
80000200:	0020d733          	srl	a4,ra,sp
80000204:	212123b7          	lui	t2,0x21212
80000208:	12138393          	addi	t2,t2,289 # 21212121 <_start-0x5edededf>
8000020c:	00c00193          	li	gp,12
80000210:	46771463          	bne	a4,t2,80000678 <fail>

80000214 <test_13>:
80000214:	212120b7          	lui	ra,0x21212
80000218:	12108093          	addi	ra,ra,289 # 21212121 <_start-0x5edededf>
8000021c:	00100113          	li	sp,1
80000220:	0020d733          	srl	a4,ra,sp
80000224:	109093b7          	lui	t2,0x10909
80000228:	09038393          	addi	t2,t2,144 # 10909090 <_start-0x6f6f6f70>
8000022c:	00d00193          	li	gp,13
80000230:	44771463          	bne	a4,t2,80000678 <fail>

80000234 <test_14>:
80000234:	212120b7          	lui	ra,0x21212
80000238:	12108093          	addi	ra,ra,289 # 21212121 <_start-0x5edededf>
8000023c:	00700113          	li	sp,7
80000240:	0020d733          	srl	a4,ra,sp
80000244:	004243b7          	lui	t2,0x424
80000248:	24238393          	addi	t2,t2,578 # 424242 <_start-0x7fbdbdbe>
8000024c:	00e00193          	li	gp,14
80000250:	42771463          	bne	a4,t2,80000678 <fail>

80000254 <test_15>:
80000254:	212120b7          	lui	ra,0x21212
80000258:	12108093          	addi	ra,ra,289 # 21212121 <_start-0x5edededf>
8000025c:	00e00113          	li	sp,14
80000260:	0020d733          	srl	a4,ra,sp
80000264:	000083b7          	lui	t2,0x8
80000268:	48438393          	addi	t2,t2,1156 # 8484 <_start-0x7fff7b7c>
8000026c:	00f00193          	li	gp,15
80000270:	40771463          	bne	a4,t2,80000678 <fail>

80000274 <test_16>:
80000274:	212120b7          	lui	ra,0x21212
80000278:	12108093          	addi	ra,ra,289 # 21212121 <_start-0x5edededf>
8000027c:	01f00113          	li	sp,31
80000280:	0020d733          	srl	a4,ra,sp
80000284:	00000393          	li	t2,0
80000288:	01000193          	li	gp,16
8000028c:	3e771663          	bne	a4,t2,80000678 <fail>

80000290 <test_17>:
80000290:	212120b7          	lui	ra,0x21212
80000294:	12108093          	addi	ra,ra,289 # 21212121 <_start-0x5edededf>
80000298:	fc000113          	li	sp,-64
8000029c:	0020d733          	srl	a4,ra,sp
800002a0:	212123b7          	lui	t2,0x21212
800002a4:	12138393          	addi	t2,t2,289 # 21212121 <_start-0x5edededf>
800002a8:	01100193          	li	gp,17
800002ac:	3c771663          	bne	a4,t2,80000678 <fail>

800002b0 <test_18>:
800002b0:	212120b7          	lui	ra,0x21212
800002b4:	12108093          	addi	ra,ra,289 # 21212121 <_start-0x5edededf>
800002b8:	fc100113          	li	sp,-63
800002bc:	0020d733          	srl	a4,ra,sp
800002c0:	109093b7          	lui	t2,0x10909
800002c4:	09038393          	addi	t2,t2,144 # 10909090 <_start-0x6f6f6f70>
800002c8:	01200193          	li	gp,18
800002cc:	3a771663          	bne	a4,t2,80000678 <fail>

800002d0 <test_19>:
800002d0:	212120b7          	lui	ra,0x21212
800002d4:	12108093          	addi	ra,ra,289 # 21212121 <_start-0x5edededf>
800002d8:	fc700113          	li	sp,-57
800002dc:	0020d733          	srl	a4,ra,sp
800002e0:	004243b7          	lui	t2,0x424
800002e4:	24238393          	addi	t2,t2,578 # 424242 <_start-0x7fbdbdbe>
800002e8:	01300193          	li	gp,19
800002ec:	38771663          	bne	a4,t2,80000678 <fail>

800002f0 <test_20>:
800002f0:	212120b7          	lui	ra,0x21212
800002f4:	12108093          	addi	ra,ra,289 # 21212121 <_start-0x5edededf>
800002f8:	fce00113          	li	sp,-50
800002fc:	0020d733          	srl	a4,ra,sp
80000300:	000083b7          	lui	t2,0x8
80000304:	48438393          	addi	t2,t2,1156 # 8484 <_start-0x7fff7b7c>
80000308:	01400193          	li	gp,20
8000030c:	36771663          	bne	a4,t2,80000678 <fail>

80000310 <test_21>:
80000310:	212120b7          	lui	ra,0x21212
80000314:	12108093          	addi	ra,ra,289 # 21212121 <_start-0x5edededf>
80000318:	fff00113          	li	sp,-1
8000031c:	0020d733          	srl	a4,ra,sp
80000320:	00000393          	li	t2,0
80000324:	01500193          	li	gp,21
80000328:	34771863          	bne	a4,t2,80000678 <fail>

8000032c <test_22>:
8000032c:	800000b7          	lui	ra,0x80000
80000330:	00700113          	li	sp,7
80000334:	0020d0b3          	srl	ra,ra,sp
80000338:	010003b7          	lui	t2,0x1000
8000033c:	01600193          	li	gp,22
80000340:	32709c63          	bne	ra,t2,80000678 <fail>

80000344 <test_23>:
80000344:	800000b7          	lui	ra,0x80000
80000348:	00e00113          	li	sp,14
8000034c:	0020d133          	srl	sp,ra,sp
80000350:	000203b7          	lui	t2,0x20
80000354:	01700193          	li	gp,23
80000358:	32711063          	bne	sp,t2,80000678 <fail>

8000035c <test_24>:
8000035c:	00700093          	li	ra,7
80000360:	0010d0b3          	srl	ra,ra,ra
80000364:	00000393          	li	t2,0
80000368:	01800193          	li	gp,24
8000036c:	30709663          	bne	ra,t2,80000678 <fail>

80000370 <test_25>:
80000370:	00000213          	li	tp,0
80000374:	800000b7          	lui	ra,0x80000
80000378:	00700113          	li	sp,7
8000037c:	0020d733          	srl	a4,ra,sp
80000380:	00070313          	mv	t1,a4
80000384:	00120213          	addi	tp,tp,1 # 1 <_start-0x7fffffff>
80000388:	00200293          	li	t0,2
8000038c:	fe5214e3          	bne	tp,t0,80000374 <test_25+0x4>
80000390:	010003b7          	lui	t2,0x1000
80000394:	01900193          	li	gp,25
80000398:	2e731063          	bne	t1,t2,80000678 <fail>

8000039c <test_26>:
8000039c:	00000213          	li	tp,0
800003a0:	800000b7          	lui	ra,0x80000
800003a4:	00e00113          	li	sp,14
800003a8:	0020d733          	srl	a4,ra,sp
800003ac:	00000013          	nop
800003b0:	00070313          	mv	t1,a4
800003b4:	00120213          	addi	tp,tp,1 # 1 <_start-0x7fffffff>
800003b8:	00200293          	li	t0,2
800003bc:	fe5212e3          	bne	tp,t0,800003a0 <test_26+0x4>
800003c0:	000203b7          	lui	t2,0x20
800003c4:	01a00193          	li	gp,26
800003c8:	2a731863          	bne	t1,t2,80000678 <fail>

800003cc <test_27>:
800003cc:	00000213          	li	tp,0
800003d0:	800000b7          	lui	ra,0x80000
800003d4:	01f00113          	li	sp,31
800003d8:	0020d733          	srl	a4,ra,sp
800003dc:	00000013          	nop
800003e0:	00000013          	nop
800003e4:	00070313          	mv	t1,a4
800003e8:	00120213          	addi	tp,tp,1 # 1 <_start-0x7fffffff>
800003ec:	00200293          	li	t0,2
800003f0:	fe5210e3          	bne	tp,t0,800003d0 <test_27+0x4>
800003f4:	00100393          	li	t2,1
800003f8:	01b00193          	li	gp,27
800003fc:	26731e63          	bne	t1,t2,80000678 <fail>

80000400 <test_28>:
80000400:	00000213          	li	tp,0
80000404:	800000b7          	lui	ra,0x80000
80000408:	00700113          	li	sp,7
8000040c:	0020d733          	srl	a4,ra,sp
80000410:	00120213          	addi	tp,tp,1 # 1 <_start-0x7fffffff>
80000414:	00200293          	li	t0,2
80000418:	fe5216e3          	bne	tp,t0,80000404 <test_28+0x4>
8000041c:	010003b7          	lui	t2,0x1000
80000420:	01c00193          	li	gp,28
80000424:	24771a63          	bne	a4,t2,80000678 <fail>

80000428 <test_29>:
80000428:	00000213          	li	tp,0
8000042c:	800000b7          	lui	ra,0x80000
80000430:	00e00113          	li	sp,14
80000434:	00000013          	nop
80000438:	0020d733          	srl	a4,ra,sp
8000043c:	00120213          	addi	tp,tp,1 # 1 <_start-0x7fffffff>
80000440:	00200293          	li	t0,2
80000444:	fe5214e3          	bne	tp,t0,8000042c <test_29+0x4>
80000448:	000203b7          	lui	t2,0x20
8000044c:	01d00193          	li	gp,29
80000450:	22771463          	bne	a4,t2,80000678 <fail>

80000454 <test_30>:
80000454:	00000213          	li	tp,0
80000458:	800000b7          	lui	ra,0x80000
8000045c:	01f00113          	li	sp,31
80000460:	00000013          	nop
80000464:	00000013          	nop
80000468:	0020d733          	srl	a4,ra,sp
8000046c:	00120213          	addi	tp,tp,1 # 1 <_start-0x7fffffff>
80000470:	00200293          	li	t0,2
80000474:	fe5212e3          	bne	tp,t0,80000458 <test_30+0x4>
80000478:	00100393          	li	t2,1
8000047c:	01e00193          	li	gp,30
80000480:	1e771c63          	bne	a4,t2,80000678 <fail>

80000484 <test_31>:
80000484:	00000213          	li	tp,0
80000488:	800000b7          	lui	ra,0x80000
8000048c:	00000013          	nop
80000490:	00700113          	li	sp,7
80000494:	0020d733          	srl	a4,ra,sp
80000498:	00120213          	addi	tp,tp,1 # 1 <_start-0x7fffffff>
8000049c:	00200293          	li	t0,2
800004a0:	fe5214e3          	bne	tp,t0,80000488 <test_31+0x4>
800004a4:	010003b7          	lui	t2,0x1000
800004a8:	01f00193          	li	gp,31
800004ac:	1c771663          	bne	a4,t2,80000678 <fail>

800004b0 <test_32>:
800004b0:	00000213          	li	tp,0
800004b4:	800000b7          	lui	ra,0x80000
800004b8:	00000013          	nop
800004bc:	00e00113          	li	sp,14
800004c0:	00000013          	nop
800004c4:	0020d733          	srl	a4,ra,sp
800004c8:	00120213          	addi	tp,tp,1 # 1 <_start-0x7fffffff>
800004cc:	00200293          	li	t0,2
800004d0:	fe5212e3          	bne	tp,t0,800004b4 <test_32+0x4>
800004d4:	000203b7          	lui	t2,0x20
800004d8:	02000193          	li	gp,32
800004dc:	18771e63          	bne	a4,t2,80000678 <fail>

800004e0 <test_33>:
800004e0:	00000213          	li	tp,0
800004e4:	800000b7          	lui	ra,0x80000
800004e8:	00000013          	nop
800004ec:	00000013          	nop
800004f0:	01f00113          	li	sp,31
800004f4:	0020d733          	srl	a4,ra,sp
800004f8:	00120213          	addi	tp,tp,1 # 1 <_start-0x7fffffff>
800004fc:	00200293          	li	t0,2
80000500:	fe5212e3          	bne	tp,t0,800004e4 <test_33+0x4>
80000504:	00100393          	li	t2,1
80000508:	02100193          	li	gp,33
8000050c:	16771663          	bne	a4,t2,80000678 <fail>

80000510 <test_34>:
80000510:	00000213          	li	tp,0
80000514:	00700113          	li	sp,7
80000518:	800000b7          	lui	ra,0x80000
8000051c:	0020d733          	srl	a4,ra,sp
80000520:	00120213          	addi	tp,tp,1 # 1 <_start-0x7fffffff>
80000524:	00200293          	li	t0,2
80000528:	fe5216e3          	bne	tp,t0,80000514 <test_34+0x4>
8000052c:	010003b7          	lui	t2,0x1000
80000530:	02200193          	li	gp,34
80000534:	14771263          	bne	a4,t2,80000678 <fail>

80000538 <test_35>:
80000538:	00000213          	li	tp,0
8000053c:	00e00113          	li	sp,14
80000540:	800000b7          	lui	ra,0x80000
80000544:	00000013          	nop
80000548:	0020d733          	srl	a4,ra,sp
8000054c:	00120213          	addi	tp,tp,1 # 1 <_start-0x7fffffff>
80000550:	00200293          	li	t0,2
80000554:	fe5214e3          	bne	tp,t0,8000053c <test_35+0x4>
80000558:	000203b7          	lui	t2,0x20
8000055c:	02300193          	li	gp,35
80000560:	10771c63          	bne	a4,t2,80000678 <fail>

80000564 <test_36>:
80000564:	00000213          	li	tp,0
80000568:	01f00113          	li	sp,31
8000056c:	800000b7          	lui	ra,0x80000
80000570:	00000013          	nop
80000574:	00000013          	nop
80000578:	0020d733          	srl	a4,ra,sp
8000057c:	00120213          	addi	tp,tp,1 # 1 <_start-0x7fffffff>
80000580:	00200293          	li	t0,2
80000584:	fe5212e3          	bne	tp,t0,80000568 <test_36+0x4>
80000588:	00100393          	li	t2,1
8000058c:	02400193          	li	gp,36
80000590:	0e771463          	bne	a4,t2,80000678 <fail>

80000594 <test_37>:
80000594:	00000213          	li	tp,0
80000598:	00700113          	li	sp,7
8000059c:	00000013          	nop
800005a0:	800000b7          	lui	ra,0x80000
800005a4:	0020d733          	srl	a4,ra,sp
800005a8:	00120213          	addi	tp,tp,1 # 1 <_start-0x7fffffff>
800005ac:	00200293          	li	t0,2
800005b0:	fe5214e3          	bne	tp,t0,80000598 <test_37+0x4>
800005b4:	010003b7          	lui	t2,0x1000
800005b8:	02500193          	li	gp,37
800005bc:	0a771e63          	bne	a4,t2,80000678 <fail>

800005c0 <test_38>:
800005c0:	00000213          	li	tp,0
800005c4:	00e00113          	li	sp,14
800005c8:	00000013          	nop
800005cc:	800000b7          	lui	ra,0x80000
800005d0:	00000013          	nop
800005d4:	0020d733          	srl	a4,ra,sp
800005d8:	00120213          	addi	tp,tp,1 # 1 <_start-0x7fffffff>
800005dc:	00200293          	li	t0,2
800005e0:	fe5212e3          	bne	tp,t0,800005c4 <test_38+0x4>
800005e4:	000203b7          	lui	t2,0x20
800005e8:	02600193          	li	gp,38
800005ec:	08771663          	bne	a4,t2,80000678 <fail>

800005f0 <test_39>:
800005f0:	00000213          	li	tp,0
800005f4:	01f00113          	li	sp,31
800005f8:	00000013          	nop
800005fc:	00000013          	nop
80000600:	800000b7          	lui	ra,0x80000
80000604:	0020d733          	srl	a4,ra,sp
80000608:	00120213          	addi	tp,tp,1 # 1 <_start-0x7fffffff>
8000060c:	00200293          	li	t0,2
80000610:	fe5212e3          	bne	tp,t0,800005f4 <test_39+0x4>
80000614:	00100393          	li	t2,1
80000618:	02700193          	li	gp,39
8000061c:	04771e63          	bne	a4,t2,80000678 <fail>

80000620 <test_40>:
80000620:	00f00093          	li	ra,15
80000624:	00105133          	srl	sp,zero,ra
80000628:	00000393          	li	t2,0
8000062c:	02800193          	li	gp,40
80000630:	04711463          	bne	sp,t2,80000678 <fail>

80000634 <test_41>:
80000634:	02000093          	li	ra,32
80000638:	0000d133          	srl	sp,ra,zero
8000063c:	02000393          	li	t2,32
80000640:	02900193          	li	gp,41
80000644:	02711a63          	bne	sp,t2,80000678 <fail>

80000648 <test_42>:
80000648:	000050b3          	srl	ra,zero,zero
8000064c:	00000393          	li	t2,0
80000650:	02a00193          	li	gp,42
80000654:	02709263          	bne	ra,t2,80000678 <fail>

80000658 <test_43>:
80000658:	40000093          	li	ra,1024
8000065c:	00001137          	lui	sp,0x1
80000660:	80010113          	addi	sp,sp,-2048 # 800 <_start-0x7ffff800>
80000664:	0020d033          	srl	zero,ra,sp
80000668:	00000393          	li	t2,0
8000066c:	02b00193          	li	gp,43
80000670:	00701463          	bne	zero,t2,80000678 <fail>
80000674:	00301c63          	bne	zero,gp,8000068c <pass>

80000678 <fail>:
80000678:	0ff0000f          	fence
8000067c:	00018063          	beqz	gp,8000067c <fail+0x4>
80000680:	00119193          	slli	gp,gp,0x1
80000684:	0011e193          	ori	gp,gp,1
80000688:	00000073          	ecall

8000068c <pass>:
8000068c:	0ff0000f          	fence
80000690:	00100193          	li	gp,1
80000694:	00000073          	ecall
80000698:	c0001073          	unimp
8000069c:	0000                	unimp
8000069e:	0000                	unimp
800006a0:	0000                	unimp
800006a2:	0000                	unimp
800006a4:	0000                	unimp
800006a6:	0000                	unimp
800006a8:	0000                	unimp
800006aa:	0000                	unimp
800006ac:	0000                	unimp
800006ae:	0000                	unimp
800006b0:	0000                	unimp
800006b2:	0000                	unimp
800006b4:	0000                	unimp
800006b6:	0000                	unimp
800006b8:	0000                	unimp
800006ba:	0000                	unimp
